v 0.319731 0.237281 0.00750005
v 0.318599 0.23734 0.0158154
l 1 2
v 0.325071 0.237001 0.00750005
v 0.319731 0.237281 0.00750005
l 3 4
v 0.369663 0.234664 0.00750005
v 0.364323 0.234944 0.00750005
l 5 6
v 0.370795 0.234605 0.0158154
v 0.369663 0.234664 0.00750005
l 7 8
v 0.319731 0.237281 1.27127
v 0.325071 0.237001 1.27127
l 9 10
v 0.318599 0.23734 1.26296
v 0.319731 0.237281 1.27127
l 11 12
v 0.369663 0.234664 1.27127
v 0.370795 0.234605 1.26296
l 13 14
v 0.364323 0.234944 1.27127
v 0.369663 0.234664 1.27127
l 15 16
v 0.32965 0.216 1.15727
v 0.329863 0.213569 1.15727
l 17 18
v 0.329863 0.213569 1.15727
v 0.330494 0.211212 1.15727
l 19 20
v 0.330494 0.211212 1.15727
v 0.331526 0.209 1.15727
l 21 22
v 0.331526 0.209 1.15727
v 0.332925 0.207001 1.15727
l 23 24
v 0.332925 0.207001 1.15727
v 0.334651 0.205275 1.15727
l 25 26
v 0.334651 0.205275 1.15727
v 0.33665 0.203876 1.15727
l 27 28
v 0.33665 0.203876 1.15727
v 0.338862 0.202844 1.15727
l 29 30
v 0.338862 0.202844 1.15727
v 0.341219 0.202213 1.15727
l 31 32
v 0.341219 0.202213 1.15727
v 0.34365 0.202 1.15727
l 33 34
v 0.34365 0.202 1.15727
v 0.346081 0.202213 1.15727
l 35 36
v 0.346081 0.202213 1.15727
v 0.348438 0.202844 1.15727
l 37 38
v 0.348438 0.202844 1.15727
v 0.35065 0.203876 1.15727
l 39 40
v 0.35065 0.203876 1.15727
v 0.352649 0.205275 1.15727
l 41 42
v 0.352649 0.205275 1.15727
v 0.354375 0.207001 1.15727
l 43 44
v 0.354375 0.207001 1.15727
v 0.355774 0.209 1.15727
l 45 46
v 0.355774 0.209 1.15727
v 0.356806 0.211212 1.15727
l 47 48
v 0.356806 0.211212 1.15727
v 0.357437 0.213569 1.15727
l 49 50
v 0.357437 0.213569 1.15727
v 0.35765 0.216 1.15727
l 51 52
v 0.357646 0.210218 0.343696
v 0.357646 0.215756 0.343657
l 53 54
v 0.357481 0.217899 0.343676
v 0.357646 0.215756 0.343657
l 55 56
v 0.357411 0.218307 0.343688
v 0.357481 0.217899 0.343676
l 57 58
v 0.356938 0.22015 0.343771
v 0.357411 0.218307 0.343688
l 59 60
v 0.356791 0.220573 0.343798
v 0.356938 0.22015 0.343771
l 61 62
v 0.356028 0.222289 0.34394
v 0.356791 0.220573 0.343798
l 63 64
v 0.3558 0.222703 0.343983
v 0.356028 0.222289 0.34394
l 65 66
v 0.354772 0.224253 0.344179
v 0.3558 0.222703 0.343983
l 67 68
v 0.354468 0.224638 0.344237
v 0.354772 0.224253 0.344179
l 69 70
v 0.353267 0.225926 0.344471
v 0.354468 0.224638 0.344237
l 71 72
v 0.35283 0.226322 0.344557
v 0.353267 0.225926 0.344471
l 73 74
v 0.35154 0.227318 0.344811
v 0.35283 0.226322 0.344557
l 75 76
v 0.350934 0.227709 0.34493
v 0.35154 0.227318 0.344811
l 77 78
v 0.349618 0.228418 0.345192
v 0.350934 0.227709 0.34493
l 79 80
v 0.348833 0.228759 0.345348
v 0.349618 0.228418 0.345192
l 81 82
v 0.347386 0.229247 0.345638
v 0.348833 0.228759 0.345348
l 83 84
v 0.346586 0.229444 0.345799
v 0.347386 0.229247 0.345638
l 85 86
v 0.345237 0.229665 0.34607
v 0.346586 0.229444 0.345799
l 87 88
v 0.344256 0.229742 0.346267
v 0.345237 0.229665 0.34607
l 89 90
v 0.343001 0.229741 0.34652
v 0.344256 0.229742 0.346267
l 91 92
v 0.341909 0.229648 0.346741
v 0.343001 0.229741 0.34652
l 93 94
v 0.340875 0.229479 0.346951
v 0.341909 0.229648 0.346741
l 95 96
v 0.339612 0.229162 0.347211
v 0.340875 0.229479 0.346951
l 97 98
v 0.33885 0.228908 0.347367
v 0.339612 0.229162 0.347211
l 99 100
v 0.337427 0.228299 0.347651
v 0.33885 0.228908 0.347367
l 101 102
v 0.336811 0.227974 0.347772
v 0.337427 0.228299 0.347651
l 103 104
v 0.335418 0.227082 0.348044
v 0.336811 0.227974 0.347772
l 105 106
v 0.334925 0.226708 0.348139
v 0.335418 0.227082 0.348044
l 107 108
v 0.333639 0.225547 0.348387
v 0.334925 0.226708 0.348139
l 109 110
v 0.33332 0.225209 0.348449
v 0.333639 0.225547 0.348387
l 111 112
v 0.332143 0.223736 0.348679
v 0.33332 0.225209 0.348449
l 113 114
v 0.331894 0.223365 0.348728
v 0.332143 0.223736 0.348679
l 115 116
v 0.330971 0.2217 0.348914
v 0.331894 0.223365 0.348728
l 117 118
v 0.33083 0.22139 0.348943
v 0.330971 0.2217 0.348914
l 119 120
v 0.330155 0.219497 0.349087
v 0.33083 0.22139 0.348943
l 121 122
v 0.330098 0.219284 0.3491
v 0.330155 0.219497 0.349087
l 123 124
v 0.329699 0.216976 0.349198
v 0.330098 0.219284 0.3491
l 125 126
v 0.329348 0.212959 0.349298
v 0.329699 0.216976 0.349198
l 127 128
v 0.329182 0.211064 0.349342
v 0.329348 0.212959 0.349298
l 129 130
v 0.329008 0.20907 0.349387
v 0.329182 0.211064 0.349342
l 131 132
v 0.336105 0.20396 0.348083
v 0.334354 0.205283 0.348413
l 133 134
v 0.353745 0.20606 0.344514
v 0.353002 0.205342 0.34467
l 135 136
v 0.353002 0.205342 0.34467
v 0.352897 0.205248 0.344692
l 137 138
v 0.352897 0.205248 0.344692
v 0.351264 0.20401 0.345031
l 139 140
v 0.351264 0.20401 0.345031
v 0.35098 0.203831 0.34509
l 141 142
v 0.35098 0.203831 0.34509
v 0.349302 0.202949 0.345435
l 143 144
v 0.349302 0.202949 0.345435
v 0.348851 0.202759 0.345528
l 145 146
v 0.348851 0.202759 0.345528
v 0.346975 0.202157 0.345912
l 147 148
v 0.346975 0.202157 0.345912
v 0.346571 0.202065 0.345994
l 149 150
v 0.346571 0.202065 0.345994
v 0.344708 0.201796 0.346373
l 151 152
v 0.344708 0.201796 0.346373
v 0.344206 0.201767 0.346475
l 153 154
v 0.344206 0.201767 0.346475
v 0.342309 0.20182 0.346859
l 155 156
v 0.342309 0.20182 0.346859
v 0.341825 0.201875 0.346956
l 157 158
v 0.341825 0.201875 0.346956
v 0.340153 0.202199 0.347292
l 159 160
v 0.340153 0.202199 0.347292
v 0.339496 0.202385 0.347423
l 161 162
v 0.339496 0.202385 0.347423
v 0.338053 0.202921 0.347707
l 163 164
v 0.338053 0.202921 0.347707
v 0.337288 0.203283 0.347856
l 165 166
v 0.337288 0.203283 0.347856
v 0.336105 0.20396 0.348083
l 167 168
v 0.357646 0.210648 0.801274
v 0.354357 0.20674 0.801274
l 169 170
v 0.357644 0.215973 0.801274
v 0.357646 0.215756 0.801274
l 171 172
v 0.329654 0.216244 0.801274
v 0.329664 0.216462 0.801274
l 173 174
v 0.329664 0.216462 0.801274
v 0.329987 0.218829 0.801274
l 175 176
v 0.330709 0.221106 0.801274
v 0.331807 0.223228 0.801274
l 177 178
v 0.329987 0.218829 0.801274
v 0.330709 0.221106 0.801274
l 179 180
v 0.33325 0.225133 0.801274
v 0.334996 0.226764 0.801274
l 181 182
v 0.331807 0.223228 0.801274
v 0.33325 0.225133 0.801274
l 183 184
v 0.334996 0.226764 0.801274
v 0.336994 0.228074 0.801274
l 185 186
v 0.336994 0.228074 0.801274
v 0.339185 0.229026 0.801274
l 187 188
v 0.339185 0.229026 0.801274
v 0.341507 0.229591 0.801274
l 189 190
v 0.341507 0.229591 0.801274
v 0.34389 0.229754 0.801274
l 191 192
v 0.34389 0.229754 0.801274
v 0.346267 0.229508 0.801274
l 193 194
v 0.348567 0.228862 0.801274
v 0.350724 0.227835 0.801274
l 195 196
v 0.346267 0.229508 0.801274
v 0.348567 0.228862 0.801274
l 197 198
v 0.350724 0.227835 0.801274
v 0.352675 0.226455 0.801274
l 199 200
v 0.352675 0.226455 0.801274
v 0.354363 0.224764 0.801274
l 201 202
v 0.354363 0.224764 0.801274
v 0.355738 0.222811 0.801274
l 203 204
v 0.355738 0.222811 0.801274
v 0.356762 0.220652 0.801274
l 205 206
v 0.357403 0.21835 0.801274
v 0.357644 0.215973 0.801274
l 207 208
v 0.356762 0.220652 0.801274
v 0.357403 0.21835 0.801274
l 209 210
v 0.349989 0.203275 0.801274
v 0.347914 0.202422 0.801274
l 211 212
v 0.339087 0.202519 0.801274
v 0.337032 0.203416 0.801274
l 213 214
v 0.34126 0.201961 0.801274
v 0.339087 0.202519 0.801274
l 215 216
v 0.335147 0.204631 0.801274
v 0.334283 0.205347 0.801274
l 217 218
v 0.337032 0.203416 0.801274
v 0.335147 0.204631 0.801274
l 219 220
v 0.354357 0.20674 0.801274
v 0.3536 0.205911 0.801274
l 221 222
v 0.3536 0.205911 0.801274
v 0.3519 0.204448 0.801274
l 223 224
v 0.3519 0.204448 0.801274
v 0.349989 0.203275 0.801274
l 225 226
v 0.347914 0.202422 0.801274
v 0.345731 0.201912 0.801274
l 227 228
v 0.345731 0.201912 0.801274
v 0.343493 0.201757 0.801274
l 229 230
v 0.343493 0.201757 0.801274
v 0.34126 0.201961 0.801274
l 231 232
v 0.329654 0.216244 0.801274
v 0.329426 0.209716 0.801274
l 233 234
v 0.329426 0.209716 0.801274
v 0.334283 0.205347 0.801274
l 235 236
v 0.357646 0.210648 0.801274
v 0.357646 0.215756 0.801274
l 237 238
v 0.00514589 0.271712 0.97586
v 0.00514589 0.263205 0.991825
l 239 240
v 0.00514589 0.277952 0.962087
v 0.00514589 0.271712 0.97586
l 241 242
v 0.00514589 0.177729 1.02366
v 0.00514589 0.173694 1.0174
l 243 244
v 0.00514589 0.192011 1.03628
v 0.00514589 0.189698 1.03504
l 245 246
v 0.214714 0.203671 0.353108
v 0.201624 0.202923 0.350422
l 247 248
v 0.178277 0.201491 0.34317
v 0.158195 0.200148 0.333925
l 249 250
v 0.329008 0.20907 0.349387
v 0.317969 0.208613 0.351276
l 251 252
v 0.0851691 0.195306 0.27951
v 0.0834288 0.195227 0.278314
l 253 254
v 0.0834094 0.1912 0.278265
v 0.0851996 0.191279 0.279494
l 255 256
v 0.0851996 0.191279 0.279494
v 0.0982177 0.191944 0.289399
l 257 258
v 0.0982177 0.191944 0.289399
v 0.125412 0.193723 0.311893
l 259 260
v 0.00514589 0.156165 0.733218
v 0.00514589 0.162869 0.622327
l 261 262
v 0.318104 0.204613 0.351274
v 0.334354 0.205283 0.348413
l 263 264
v 0.158195 0.200148 0.333925
v 0.140761 0.198916 0.32331
l 265 266
v 0.140761 0.198916 0.32331
v 0.125359 0.197804 0.311944
l 267 268
v 0.125359 0.197804 0.311944
v 0.0981801 0.195989 0.289427
l 269 270
v 0.0981801 0.195989 0.289427
v 0.0851691 0.195306 0.27951
l 271 272
v 0.201624 0.202923 0.350422
v 0.178277 0.201491 0.34317
l 273 274
v 0.228853 0.204441 0.355067
v 0.214714 0.203671 0.353108
l 275 276
v 0.244117 0.205232 0.356221
v 0.228853 0.204441 0.355067
l 277 278
v 0.260583 0.206044 0.356496
v 0.244117 0.205232 0.356221
l 279 280
v 0.278329 0.206878 0.355814
v 0.260583 0.206044 0.356496
l 281 282
v 0.317969 0.208613 0.351276
v 0.297432 0.207735 0.354099
l 283 284
v 0.297432 0.207735 0.354099
v 0.278329 0.206878 0.355814
l 285 286
v 0.228958 0.200372 0.355022
v 0.244229 0.201179 0.356188
l 287 288
v 0.278453 0.202857 0.3558
v 0.297562 0.203726 0.354093
l 289 290
v 0.201716 0.198826 0.350359
v 0.214813 0.199587 0.353054
l 291 292
v 0.178358 0.197379 0.343098
v 0.201716 0.198826 0.350359
l 293 294
v 0.158266 0.19604 0.333856
v 0.178358 0.197379 0.343098
l 295 296
v 0.140823 0.194819 0.323249
v 0.158266 0.19604 0.333856
l 297 298
v 0.125412 0.193723 0.311893
v 0.140823 0.194819 0.323249
l 299 300
v 0.00514589 0.200697 1.03891
v 0.00514589 0.197556 1.03829
l 301 302
v 0.00514589 0.205423 1.03925
v 0.00514589 0.200697 1.03891
l 303 304
v 0.00514589 0.196214 1.03792
v 0.00514589 0.193759 1.03706
l 305 306
v 0.00514589 0.187824 1.03383
v 0.00514589 0.185502 1.03207
l 307 308
v 0.00514589 0.185502 1.03207
v 0.00514589 0.183378 1.03018
l 309 310
v 0.00514589 0.183378 1.03018
v 0.00514589 0.181409 1.02817
l 311 312
v 0.00514589 0.181409 1.02817
v 0.00514589 0.179003 1.02534
l 313 314
v 0.00514589 0.197556 1.03829
v 0.00514589 0.196214 1.03792
l 315 316
v 0.00514589 0.171199 1.01266
v 0.00514589 0.167777 1.0048
l 317 318
v 0.00514589 0.167777 1.0048
v 0.00514589 0.164736 0.996013
l 319 320
v 0.00514589 0.173694 1.0174
v 0.00514589 0.171199 1.01266
l 321 322
v 0.00514589 0.164736 0.996013
v 0.00514589 0.162447 0.987839
l 323 324
v 0.00514589 0.162447 0.987839
v 0.00514589 0.158102 0.966183
l 325 326
v 0.00514589 0.158102 0.966183
v 0.00514589 0.154588 0.935418
l 327 328
v 0.00514589 0.154588 0.935418
v 0.00514589 0.153416 0.917168
l 329 330
v 0.00514589 0.153416 0.917168
v 0.00514589 0.153365 0.916132
l 331 332
v 0.00514589 0.152378 0.844671
v 0.00514589 0.1524 0.842893
l 333 334
v 0.00514589 0.152473 0.889079
v 0.00514589 0.152378 0.844671
l 335 336
v 0.00514589 0.179003 1.02534
v 0.00514589 0.177729 1.02366
l 337 338
v 0.00514589 0.189698 1.03504
v 0.00514589 0.187824 1.03383
l 339 340
v 0.297562 0.203726 0.354093
v 0.318104 0.204613 0.351274
l 341 342
v 0.00514589 0.193759 1.03706
v 0.00514589 0.192011 1.03628
l 343 344
v 0.260701 0.202008 0.356472
v 0.278453 0.202857 0.3558
l 345 346
v 0.214813 0.199587 0.353054
v 0.228958 0.200372 0.355022
l 347 348
v 0.00514589 0.1524 0.842893
v 0.00514589 0.152662 0.827387
l 349 350
v 0.00514589 0.152662 0.827387
v 0.00514589 0.156165 0.733218
l 351 352
v 0.00514589 0.153365 0.916132
v 0.00514589 0.152473 0.889079
l 353 354
v 0.244229 0.201179 0.356188
v 0.260701 0.202008 0.356472
l 355 356
v 0.00514589 0.293954 0.622327
v 0.00514589 0.300754 0.668503
l 357 358
v 0.00514589 0.300754 0.668503
v 0.00514589 0.304132 0.697797
l 359 360
v 0.00514589 0.304132 0.697797
v 0.00514589 0.306077 0.719047
l 361 362
v 0.00514589 0.306077 0.719047
v 0.00514589 0.308638 0.765709
l 363 364
v 0.00514589 0.308638 0.765709
v 0.00514589 0.308553 0.807933
l 365 366
v 0.00514589 0.302857 0.871156
v 0.00514589 0.297588 0.899447
l 367 368
v 0.00514589 0.304845 0.85671
v 0.00514589 0.302857 0.871156
l 369 370
v 0.00514589 0.306527 0.840917
v 0.00514589 0.304845 0.85671
l 371 372
v 0.00514589 0.308553 0.807933
v 0.00514589 0.306527 0.840917
l 373 374
v 0.00514589 0.280454 0.955977
v 0.00514589 0.277952 0.962087
l 375 376
v 0.00514589 0.263205 0.991825
v 0.00514589 0.252199 1.00849
l 377 378
v 0.00514589 0.230427 1.0303
v 0.00514589 0.227199 1.03241
l 379 380
v 0.00514589 0.227199 1.03241
v 0.00514589 0.222916 1.03479
l 381 382
v 0.00514589 0.252199 1.00849
v 0.00514589 0.247573 1.0143
l 383 384
v 0.00514589 0.247573 1.0143
v 0.00514589 0.247031 1.01494
l 385 386
v 0.00514589 0.247031 1.01494
v 0.00514589 0.23919 1.02316
l 387 388
v 0.00514589 0.23919 1.02316
v 0.00514589 0.231944 1.02921
l 389 390
v 0.00514589 0.231944 1.02921
v 0.00514589 0.230427 1.0303
l 391 392
v 0.00514589 0.289568 0.929976
v 0.00514589 0.280454 0.955977
l 393 394
v 0.00514589 0.222916 1.03479
v 0.00514589 0.217796 1.03699
l 395 396
v 0.00514589 0.217796 1.03699
v 0.00514589 0.216187 1.03753
l 397 398
v 0.00514589 0.216187 1.03753
v 0.00514589 0.213653 1.03824
l 399 400
v 0.00514589 0.213653 1.03824
v 0.00514589 0.210198 1.03891
l 401 402
v 0.00514589 0.210198 1.03891
v 0.00514589 0.205423 1.03925
l 403 404
v 0.00514589 0.297588 0.899447
v 0.00514589 0.289568 0.929976
l 405 406
v 0.0532339 0.199933 0.264389
v 0.0546929 0.199257 0.26475
l 407 408
v 0.0546929 0.199257 0.26475
v 0.0599777 0.197306 0.266317
l 409 410
v 0.0599777 0.197306 0.266317
v 0.0606072 0.19712 0.266532
l 411 412
v 0.0606072 0.19712 0.266532
v 0.0633696 0.196412 0.267545
l 413 414
v 0.0633696 0.196412 0.267545
v 0.0672653 0.195686 0.26917
l 415 416
v 0.0756077 0.195045 0.273421
v 0.0717208 0.194786 0.271311
l 417 418
v 0.0756077 0.195045 0.273421
v 0.0834288 0.195227 0.278314
l 419 420
v 0.0454244 0.204869 0.262971
v 0.0457138 0.204635 0.263009
l 421 422
v 0.0457138 0.204635 0.263009
v 0.0495191 0.201966 0.263609
l 423 424
v 0.0495191 0.201966 0.263609
v 0.0532339 0.199933 0.264389
l 425 426
v 0.0377217 0.214663 0.262367
v 0.0395517 0.211323 0.262443
l 427 428
v 0.0395517 0.211323 0.262443
v 0.0421005 0.208022 0.262618
l 429 430
v 0.0421005 0.208022 0.262618
v 0.0454244 0.204869 0.262971
l 431 432
v 0.0375519 0.215046 0.262362
v 0.0377217 0.214663 0.262367
l 433 434
v 0.0365068 0.217906 0.262339
v 0.0375519 0.215046 0.262362
l 435 436
v 0.0364036 0.218258 0.262337
v 0.0365068 0.217906 0.262339
l 437 438
v 0.035631 0.221615 0.262327
v 0.0364036 0.218258 0.262337
l 439 440
v 0.0345406 0.228441 0.262327
v 0.035631 0.221615 0.262327
l 441 442
v 0.0198851 0.248575 0.262327
v 0.0181945 0.249458 0.262327
l 443 444
v 0.0224526 0.246951 0.262327
v 0.0198851 0.248575 0.262327
l 445 446
v 0.024656 0.245234 0.262327
v 0.0224526 0.246951 0.262327
l 447 448
v 0.00514589 0.268236 0.409828
v 0.00514589 0.284026 0.557327
l 449 450
v 0.0345406 0.228441 0.262327
v 0.0339196 0.230932 0.262327
l 451 452
v 0.0339196 0.230932 0.262327
v 0.0331577 0.23318 0.262327
l 453 454
v 0.0331577 0.23318 0.262327
v 0.0320523 0.23571 0.262327
l 455 456
v 0.0320523 0.23571 0.262327
v 0.0310076 0.237649 0.262327
l 457 458
v 0.0260368 0.243974 0.262327
v 0.024656 0.245234 0.262327
l 459 460
v 0.0278013 0.242109 0.262327
v 0.0260368 0.243974 0.262327
l 461 462
v 0.0281323 0.241721 0.262327
v 0.0278013 0.242109 0.262327
l 463 464
v 0.0294004 0.240101 0.262327
v 0.0281323 0.241721 0.262327
l 465 466
v 0.0310076 0.237649 0.262327
v 0.0294004 0.240101 0.262327
l 467 468
v 0.01358 0.251236 0.262327
v 0.0102569 0.252008 0.262327
l 469 470
v 0.0102569 0.252008 0.262327
v 0.00868886 0.252236 0.262327
l 471 472
v 0.00868886 0.252236 0.262327
v 0.00514589 0.252446 0.262327
l 473 474
v 0.00514589 0.252446 0.262327
v 0.00514589 0.268236 0.409828
l 475 476
v 0.0152177 0.250704 0.262327
v 0.01358 0.251236 0.262327
l 477 478
v 0.0181945 0.249458 0.262327
v 0.0152177 0.250704 0.262327
l 479 480
v 0.00514589 0.250946 0.262327
v 0.00514589 0.252446 0.262327
l 481 482
v 0.00514589 0.192446 0.262327
v 0.00514589 0.193946 0.262327
l 483 484
v 0.00514589 0.19227 0.262327
v 0.00514589 0.192446 0.262327
l 485 486
v 0.0231695 0.190273 0.262327
v 0.00514589 0.190273 0.262327
l 487 488
v 0.00514589 0.190273 0.262327
v 0.00514589 0.19227 0.262327
l 489 490
v 0.0410564 0.190284 0.262536
v 0.0231695 0.190273 0.262327
l 491 492
v 0.0493938 0.190339 0.263584
v 0.0410564 0.190284 0.262536
l 493 494
v 0.0572362 0.19044 0.265446
v 0.0493938 0.190339 0.263584
l 495 496
v 0.0646609 0.190585 0.268045
v 0.0572362 0.19044 0.265446
l 497 498
v 0.0717449 0.190774 0.271304
v 0.0646609 0.190585 0.268045
l 499 500
v 0.0834094 0.1912 0.278265
v 0.0717449 0.190774 0.271304
l 501 502
v 0.00514589 0.162869 0.622327
v 0.00514589 0.173948 0.473059
l 503 504
v 0.00514589 0.173948 0.473059
v 0.00514589 0.190273 0.262327
l 505 506
v 0.00514587 0.284852 0.564776
v 0.00514589 0.286344 0.576505
l 507 508
v 0.00514589 0.284026 0.557327
v 0.00514587 0.284852 0.564776
l 509 510
v 0.00514691 0.293724 0.620952
v 0.00514589 0.293954 0.622327
l 511 512
v 0.00514608 0.293324 0.618613
v 0.00514691 0.293724 0.620952
l 513 514
v 0.00514589 0.292142 0.611883
v 0.00514608 0.293324 0.618613
l 515 516
v 0.00514589 0.29103 0.605614
v 0.00514589 0.292142 0.611883
l 517 518
v 0.00514589 0.286344 0.576505
v 0.00514589 0.29103 0.605614
l 519 520
v 0.747338 0.221782 0.264763
v 0.950928 0.229914 0.223511
l 521 522
v 0.950788 0.233911 0.223511
v 0.747198 0.225779 0.264763
l 523 524
v 0.353745 0.20606 0.344514
v 0.543748 0.213649 0.306015
l 525 526
v 0.543608 0.217646 0.306015
v 0.357646 0.210218 0.343696
l 527 528
v 1.15438 0.242043 0.182259
v 0.950788 0.233911 0.223511
l 529 530
v 0.747198 0.225779 0.264763
v 0.543608 0.217646 0.306015
l 531 532
v 0.950928 0.229914 0.223511
v 1.15452 0.238047 0.182259
l 533 534
v 0.543748 0.213649 0.306015
v 0.747338 0.221782 0.264763
l 535 536
v 1.16849 0.241971 0.176078
v 1.17149 0.24388 0.173856
l 537 538
v 1.17893 0.252136 0.166201
v 1.18012 0.254696 0.164347
l 539 540
v 1.15452 0.238047 0.182259
v 1.15708 0.238257 0.181622
l 541 542
v 1.17591 0.254881 0.164988
v 1.17532 0.253682 0.165983
l 543 544
v 1.17634 0.25591 0.164207
v 1.17591 0.254881 0.164988
l 545 546
v 1.17707 0.25833 0.16262
v 1.177 0.258029 0.162798
l 547 548
v 1.177 0.258029 0.162798
v 1.17634 0.25591 0.164207
l 549 550
v 1.17149 0.24388 0.173856
v 1.17454 0.246443 0.171178
l 551 552
v 1.17454 0.246443 0.171178
v 1.17479 0.246688 0.170938
l 553 554
v 1.17867 0.251678 0.166557
v 1.17893 0.252136 0.166201
l 555 556
v 1.17719 0.249441 0.168404
v 1.17867 0.251678 0.166557
l 557 558
v 1.17479 0.246688 0.170938
v 1.17719 0.249441 0.168404
l 559 560
v 1.16241 0.239391 0.179579
v 1.16356 0.239769 0.179011
l 561 562
v 1.16356 0.239769 0.179011
v 1.16536 0.240457 0.178035
l 563 564
v 1.16536 0.240457 0.178035
v 1.16771 0.241554 0.176597
l 565 566
v 1.15708 0.238257 0.181622
v 1.15913 0.23858 0.180948
l 567 568
v 1.15913 0.23858 0.180948
v 1.15965 0.238683 0.180757
l 569 570
v 1.15965 0.238683 0.180757
v 1.16241 0.239391 0.179579
l 571 572
v 1.15666 0.242216 0.181662
v 1.15438 0.242043 0.182259
l 573 574
v 1.15891 0.242557 0.180807
v 1.15666 0.242216 0.181662
l 575 576
v 1.16042 0.242885 0.180091
v 1.15891 0.242557 0.180807
l 577 578
v 1.16131 0.24312 0.179613
v 1.16042 0.242885 0.180091
l 579 580
v 1.16386 0.24397 0.178025
v 1.16131 0.24312 0.179613
l 581 582
v 1.17532 0.253682 0.165983
v 1.1751 0.253286 0.16633
l 583 584
v 1.1751 0.253286 0.16633
v 1.17386 0.251375 0.168157
l 585 586
v 1.17386 0.251375 0.168157
v 1.17306 0.250372 0.169216
l 587 588
v 1.17306 0.250372 0.169216
v 1.17164 0.248855 0.170958
l 589 590
v 1.17164 0.248855 0.170958
v 1.17052 0.247847 0.172218
l 591 592
v 1.17052 0.247847 0.172218
v 1.16907 0.24674 0.173705
l 593 594
v 1.16907 0.24674 0.173705
v 1.16752 0.24574 0.175152
l 595 596
v 1.16752 0.24574 0.175152
v 1.16653 0.245187 0.176001
l 597 598
v 1.16653 0.245187 0.176001
v 1.16587 0.244851 0.176538
l 599 600
v 1.16587 0.244851 0.176538
v 1.16386 0.24397 0.178025
l 601 602
v 1.18012 0.254696 0.164347
v 1.18088 0.257093 0.162818
l 603 604
v 1.18088 0.257093 0.162818
v 1.18097 0.25743 0.16262
l 605 606
v 1.16771 0.241554 0.176597
v 1.16849 0.241971 0.176078
l 607 608
v 1.20867 0.374191 0.165364
v 1.20843 0.374245 0.166132
l 609 610
v 1.20923 0.374061 0.162848
v 1.20867 0.374191 0.165364
l 611 612
v 1.20822 0.374295 0.166731
v 1.20782 0.374385 0.167609
l 613 614
v 1.20843 0.374245 0.166132
v 1.20822 0.374295 0.166731
l 615 616
v 1.21036 0.373801 0.151328
v 1.20969 0.373954 0.159812
l 617 618
v 1.20969 0.373954 0.159812
v 1.20923 0.374061 0.162848
l 619 620
v 1.20931 0.374042 0.11673
v 1.2103 0.373814 0.139979
l 621 622
v 1.2103 0.373814 0.139979
v 1.21036 0.373801 0.151328
l 623 624
v 1.20406 0.375254 0.0942735
v 1.17707 0.25833 0.16262
l 625 626
v 1.20275 0.375557 0.11597
v 1.20406 0.375254 0.0942735
l 627 628
v 1.20164 0.375813 0.150332
v 1.20172 0.375795 0.139979
l 629 630
v 1.20419 0.375225 0.167589
v 1.20381 0.375313 0.166731
l 631 632
v 1.20381 0.375313 0.166731
v 1.20359 0.375364 0.166117
l 633 634
v 1.20359 0.375364 0.166117
v 1.20336 0.375417 0.165364
l 635 636
v 1.20336 0.375417 0.165364
v 1.2028 0.375544 0.162914
l 637 638
v 1.2028 0.375544 0.162914
v 1.20233 0.375654 0.159813
l 639 640
v 1.20233 0.375654 0.159813
v 1.20176 0.375785 0.153475
l 641 642
v 1.20176 0.375785 0.153475
v 1.20164 0.375813 0.150332
l 643 644
v 1.20172 0.375795 0.139979
v 1.20207 0.375715 0.130134
l 645 646
v 1.20207 0.375715 0.130134
v 1.20275 0.375557 0.11597
l 647 648
v 1.18097 0.25743 0.16262
v 1.20796 0.374354 0.0942735
l 649 650
v 1.20796 0.374354 0.0942735
v 1.20931 0.374042 0.11673
l 651 652
v 1.20406 0.375254 0.0942735
v 1.20796 0.374354 0.0942735
l 653 654
v 0.32965 0.216 1.07227
v 0.329863 0.213569 1.07227
l 655 656
v 0.329863 0.213569 1.07227
v 0.330494 0.211212 1.07227
l 657 658
v 0.331526 0.209 1.07227
v 0.332925 0.207001 1.07227
l 659 660
v 0.330494 0.211212 1.07227
v 0.331526 0.209 1.07227
l 661 662
v 0.334651 0.205275 1.07227
v 0.33665 0.203876 1.07227
l 663 664
v 0.332925 0.207001 1.07227
v 0.334651 0.205275 1.07227
l 665 666
v 0.338862 0.202844 1.07227
v 0.341219 0.202213 1.07227
l 667 668
v 0.33665 0.203876 1.07227
v 0.338862 0.202844 1.07227
l 669 670
v 0.34365 0.202 1.07227
v 0.346081 0.202213 1.07227
l 671 672
v 0.341219 0.202213 1.07227
v 0.34365 0.202 1.07227
l 673 674
v 0.346081 0.202213 1.07227
v 0.348438 0.202844 1.07227
l 675 676
v 0.348438 0.202844 1.07227
v 0.35065 0.203876 1.07227
l 677 678
v 0.35065 0.203876 1.07227
v 0.352649 0.205275 1.07227
l 679 680
v 0.352649 0.205275 1.07227
v 0.354375 0.207001 1.07227
l 681 682
v 0.354375 0.207001 1.07227
v 0.355774 0.209 1.07227
l 683 684
v 0.355774 0.209 1.07227
v 0.356806 0.211212 1.07227
l 685 686
v 0.356806 0.211212 1.07227
v 0.357437 0.213569 1.07227
l 687 688
v 0.357437 0.213569 1.07227
v 0.35765 0.216 1.07227
l 689 690
v 0.352649 0.226725 1.14027
v 0.35065 0.228124 1.14027
l 691 692
v 0.35065 0.228124 1.14027
v 0.348438 0.229156 1.14027
l 693 694
v 0.348438 0.229156 1.14027
v 0.346081 0.229787 1.14027
l 695 696
v 0.346081 0.229787 1.14027
v 0.34365 0.23 1.14027
l 697 698
v 0.34365 0.23 1.14027
v 0.341219 0.229787 1.14027
l 699 700
v 0.341219 0.229787 1.14027
v 0.338862 0.229156 1.14027
l 701 702
v 0.338862 0.229156 1.14027
v 0.33665 0.228124 1.14027
l 703 704
v 0.33665 0.228124 1.14027
v 0.334651 0.226725 1.14027
l 705 706
v 0.334651 0.226725 1.14027
v 0.332925 0.224999 1.14027
l 707 708
v 0.332925 0.224999 1.14027
v 0.331526 0.223 1.14027
l 709 710
v 0.331526 0.223 1.14027
v 0.330494 0.220788 1.14027
l 711 712
v 0.330494 0.220788 1.14027
v 0.329863 0.218431 1.14027
l 713 714
v 0.329863 0.218431 1.14027
v 0.32965 0.216 1.14027
l 715 716
v 0.32965 0.216 1.14027
v 0.329863 0.213569 1.14027
l 717 718
v 0.329863 0.213569 1.14027
v 0.330494 0.211212 1.14027
l 719 720
v 0.330494 0.211212 1.14027
v 0.331526 0.209 1.14027
l 721 722
v 0.331526 0.209 1.14027
v 0.332925 0.207001 1.14027
l 723 724
v 0.332925 0.207001 1.14027
v 0.334651 0.205275 1.14027
l 725 726
v 0.334651 0.205275 1.14027
v 0.33665 0.203876 1.14027
l 727 728
v 0.33665 0.203876 1.14027
v 0.338862 0.202844 1.14027
l 729 730
v 0.338862 0.202844 1.14027
v 0.341219 0.202213 1.14027
l 731 732
v 0.341219 0.202213 1.14027
v 0.34365 0.202 1.14027
l 733 734
v 0.34365 0.202 1.14027
v 0.346081 0.202213 1.14027
l 735 736
v 0.346081 0.202213 1.14027
v 0.348438 0.202844 1.14027
l 737 738
v 0.348438 0.202844 1.14027
v 0.35065 0.203876 1.14027
l 739 740
v 0.35065 0.203876 1.14027
v 0.352649 0.205275 1.14027
l 741 742
v 0.352649 0.205275 1.14027
v 0.354375 0.207001 1.14027
l 743 744
v 0.354375 0.207001 1.14027
v 0.355774 0.209 1.14027
l 745 746
v 0.355774 0.209 1.14027
v 0.356806 0.211212 1.14027
l 747 748
v 0.356806 0.211212 1.14027
v 0.357437 0.213569 1.14027
l 749 750
v 0.357437 0.213569 1.14027
v 0.35765 0.216 1.14027
l 751 752
v 0.35765 0.216 1.14027
v 0.357437 0.218431 1.14027
l 753 754
v 0.357437 0.218431 1.14027
v 0.356806 0.220788 1.14027
l 755 756
v 0.356806 0.220788 1.14027
v 0.355774 0.223 1.14027
l 757 758
v 0.355774 0.223 1.14027
v 0.354375 0.224999 1.14027
l 759 760
v 0.354375 0.224999 1.14027
v 0.352649 0.226725 1.14027
l 761 762
v 0.334651 0.226725 1.07227
v 0.33665 0.228124 1.07227
l 763 764
v 0.33665 0.228124 1.07227
v 0.338862 0.229156 1.07227
l 765 766
v 0.338862 0.229156 1.07227
v 0.341219 0.229787 1.07227
l 767 768
v 0.341219 0.229787 1.07227
v 0.34365 0.23 1.07227
l 769 770
v 0.34365 0.23 1.07227
v 0.346081 0.229787 1.07227
l 771 772
v 0.346081 0.229787 1.07227
v 0.348438 0.229156 1.07227
l 773 774
v 0.348438 0.229156 1.07227
v 0.35065 0.228124 1.07227
l 775 776
v 0.35065 0.228124 1.07227
v 0.352649 0.226725 1.07227
l 777 778
v 0.352649 0.226725 1.07227
v 0.354375 0.224999 1.07227
l 779 780
v 0.354375 0.224999 1.07227
v 0.355774 0.223 1.07227
l 781 782
v 0.355774 0.223 1.07227
v 0.356806 0.220788 1.07227
l 783 784
v 0.356806 0.220788 1.07227
v 0.357437 0.218431 1.07227
l 785 786
v 0.357437 0.218431 1.07227
v 0.35765 0.216 1.07227
l 787 788
v 0.32965 0.216 1.07227
v 0.329863 0.218431 1.07227
l 789 790
v 0.329863 0.218431 1.07227
v 0.330494 0.220788 1.07227
l 791 792
v 0.330494 0.220788 1.07227
v 0.331526 0.223 1.07227
l 793 794
v 0.331526 0.223 1.07227
v 0.332925 0.224999 1.07227
l 795 796
v 0.332925 0.224999 1.07227
v 0.334651 0.226725 1.07227
l 797 798
v 0.34365 0.167 1.09227
v 0.341219 0.167 1.09249
l 799 800
v 0.341219 0.167 1.09249
v 0.338862 0.167 1.09312
l 801 802
v 0.338862 0.167 1.09312
v 0.33665 0.167 1.09415
l 803 804
v 0.33665 0.167 1.09415
v 0.334651 0.167 1.09555
l 805 806
v 0.334651 0.167 1.09555
v 0.332925 0.167 1.09727
l 807 808
v 0.332925 0.167 1.09727
v 0.331526 0.167 1.09927
l 809 810
v 0.331526 0.167 1.09927
v 0.330494 0.167 1.10149
l 811 812
v 0.330494 0.167 1.10149
v 0.329863 0.167 1.10384
l 813 814
v 0.329863 0.167 1.10384
v 0.32965 0.167 1.10627
l 815 816
v 0.32965 0.167 1.10627
v 0.329863 0.167 1.10871
l 817 818
v 0.330494 0.167 1.11106
v 0.331526 0.167 1.11327
l 819 820
v 0.329863 0.167 1.10871
v 0.330494 0.167 1.11106
l 821 822
v 0.332925 0.167 1.11527
v 0.334651 0.167 1.117
l 823 824
v 0.331526 0.167 1.11327
v 0.332925 0.167 1.11527
l 825 826
v 0.33665 0.167 1.1184
v 0.338862 0.167 1.11943
l 827 828
v 0.334651 0.167 1.117
v 0.33665 0.167 1.1184
l 829 830
v 0.341219 0.167 1.12006
v 0.34365 0.167 1.12027
l 831 832
v 0.338862 0.167 1.11943
v 0.341219 0.167 1.12006
l 833 834
v 0.354375 0.167 1.09727
v 0.355774 0.167 1.09927
l 835 836
v 0.355774 0.167 1.09927
v 0.356806 0.167 1.10149
l 837 838
v 0.356806 0.167 1.10149
v 0.357437 0.167 1.10384
l 839 840
v 0.357437 0.167 1.10384
v 0.35765 0.167 1.10627
l 841 842
v 0.35765 0.167 1.10627
v 0.357437 0.167 1.10871
l 843 844
v 0.357437 0.167 1.10871
v 0.356806 0.167 1.11106
l 845 846
v 0.356806 0.167 1.11106
v 0.355774 0.167 1.11327
l 847 848
v 0.355774 0.167 1.11327
v 0.354375 0.167 1.11527
l 849 850
v 0.354375 0.167 1.11527
v 0.352649 0.167 1.117
l 851 852
v 0.352649 0.167 1.117
v 0.35065 0.167 1.1184
l 853 854
v 0.35065 0.167 1.1184
v 0.348438 0.167 1.11943
l 855 856
v 0.348438 0.167 1.11943
v 0.346081 0.167 1.12006
l 857 858
v 0.346081 0.167 1.12006
v 0.34365 0.167 1.12027
l 859 860
v 0.34365 0.167 1.09227
v 0.346081 0.167 1.09249
l 861 862
v 0.346081 0.167 1.09249
v 0.348438 0.167 1.09312
l 863 864
v 0.348438 0.167 1.09312
v 0.35065 0.167 1.09415
l 865 866
v 0.35065 0.167 1.09415
v 0.352649 0.167 1.09555
l 867 868
v 0.352649 0.167 1.09555
v 0.354375 0.167 1.09727
l 869 870
v 0.34365 0 1.09977
v 0.342521 0 1.09987
l 871 872
v 0.342521 0.018 1.09987
v 0.34365 0.018 1.09977
l 873 874
v 0.342521 0 1.09987
v 0.341427 0 1.10017
l 875 876
v 0.341427 0.018 1.10017
v 0.342521 0.018 1.09987
l 877 878
v 0.341427 0 1.10017
v 0.3404 0 1.10064
l 879 880
v 0.3404 0.018 1.10064
v 0.341427 0.018 1.10017
l 881 882
v 0.3404 0 1.10064
v 0.339472 0 1.10129
l 883 884
v 0.339472 0.018 1.10129
v 0.3404 0.018 1.10064
l 885 886
v 0.339472 0 1.10129
v 0.338671 0 1.1021
l 887 888
v 0.338671 0.018 1.1021
v 0.339472 0.018 1.10129
l 889 890
v 0.338671 0 1.1021
v 0.338021 0 1.10302
l 891 892
v 0.338021 0.018 1.10302
v 0.338671 0.018 1.1021
l 893 894
v 0.338021 0 1.10302
v 0.337542 0 1.10405
l 895 896
v 0.337542 0.018 1.10405
v 0.338021 0.018 1.10302
l 897 898
v 0.337542 0 1.10405
v 0.337249 0 1.10514
l 899 900
v 0.337249 0.018 1.10514
v 0.337542 0.018 1.10405
l 901 902
v 0.337249 0 1.10514
v 0.33715 0 1.10627
l 903 904
v 0.33715 0.018 1.10627
v 0.337249 0.018 1.10514
l 905 906
v 0.33715 0 1.10627
v 0.337249 0 1.1074
l 907 908
v 0.337249 0.018 1.1074
v 0.33715 0.018 1.10627
l 909 910
v 0.337249 0 1.1074
v 0.337542 0 1.1085
l 911 912
v 0.337542 0.018 1.1085
v 0.337249 0.018 1.1074
l 913 914
v 0.337542 0 1.1085
v 0.338021 0 1.10952
l 915 916
v 0.338021 0.018 1.10952
v 0.337542 0.018 1.1085
l 917 918
v 0.338021 0 1.10952
v 0.338671 0 1.11045
l 919 920
v 0.338671 0.018 1.11045
v 0.338021 0.018 1.10952
l 921 922
v 0.338671 0 1.11045
v 0.339472 0 1.11125
l 923 924
v 0.339472 0.018 1.11125
v 0.338671 0.018 1.11045
l 925 926
v 0.339472 0 1.11125
v 0.3404 0 1.1119
l 927 928
v 0.3404 0.018 1.1119
v 0.339472 0.018 1.11125
l 929 930
v 0.3404 0 1.1119
v 0.341427 0 1.11238
l 931 932
v 0.341427 0.018 1.11238
v 0.3404 0.018 1.1119
l 933 934
v 0.341427 0 1.11238
v 0.342521 0 1.11267
l 935 936
v 0.342521 0.018 1.11267
v 0.341427 0.018 1.11238
l 937 938
v 0.342521 0 1.11267
v 0.34365 0 1.11277
l 939 940
v 0.34365 0.018 1.11277
v 0.342521 0.018 1.11267
l 941 942
v 0.347828 0.018 1.11125
v 0.34863 0.018 1.11045
l 943 944
v 0.34863 0.018 1.11045
v 0.349279 0.018 1.10952
l 945 946
v 0.349279 0.018 1.10952
v 0.349758 0.018 1.1085
l 947 948
v 0.349758 0.018 1.1085
v 0.350051 0.018 1.1074
l 949 950
v 0.350051 0.018 1.1074
v 0.35015 0.018 1.10627
l 951 952
v 0.35015 0.018 1.10627
v 0.350051 0.018 1.10514
l 953 954
v 0.350051 0.018 1.10514
v 0.349758 0.018 1.10405
l 955 956
v 0.349758 0.018 1.10405
v 0.349279 0.018 1.10302
l 957 958
v 0.349279 0.018 1.10302
v 0.34863 0.018 1.1021
l 959 960
v 0.34863 0.018 1.1021
v 0.347828 0.018 1.10129
l 961 962
v 0.347828 0.018 1.10129
v 0.3469 0.018 1.10064
l 963 964
v 0.3469 0.018 1.10064
v 0.345873 0.018 1.10017
l 965 966
v 0.345873 0.018 1.10017
v 0.344779 0.018 1.09987
l 967 968
v 0.344779 0.018 1.09987
v 0.34365 0.018 1.09977
l 969 970
v 0.34365 0.018 1.11277
v 0.344779 0.018 1.11267
l 971 972
v 0.344779 0.018 1.11267
v 0.345873 0.018 1.11238
l 973 974
v 0.345873 0.018 1.11238
v 0.3469 0.018 1.1119
l 975 976
v 0.3469 0.018 1.1119
v 0.347828 0.018 1.11125
l 977 978
v 0.3469 0 1.10064
v 0.347828 0 1.10129
l 979 980
v 0.349279 0 1.10302
v 0.349758 0 1.10405
l 981 982
v 0.347828 0 1.10129
v 0.34863 0 1.1021
l 983 984
v 0.34863 0 1.1021
v 0.349279 0 1.10302
l 985 986
v 0.349758 0 1.10405
v 0.350051 0 1.10514
l 987 988
v 0.350051 0 1.10514
v 0.35015 0 1.10627
l 989 990
v 0.35015 0 1.10627
v 0.350051 0 1.1074
l 991 992
v 0.350051 0 1.1074
v 0.349758 0 1.1085
l 993 994
v 0.349758 0 1.1085
v 0.349279 0 1.10952
l 995 996
v 0.344779 0 1.09987
v 0.345873 0 1.10017
l 997 998
v 0.345873 0 1.10017
v 0.3469 0 1.10064
l 999 1000
v 0.34863 0 1.11045
v 0.347828 0 1.11125
l 1001 1002
v 0.347828 0 1.11125
v 0.3469 0 1.1119
l 1003 1004
v 0.344779 0 1.11267
v 0.34365 0 1.11277
l 1005 1006
v 0.345873 0 1.11238
v 0.344779 0 1.11267
l 1007 1008
v 0.3469 0 1.1119
v 0.345873 0 1.11238
l 1009 1010
v 0.349279 0 1.10952
v 0.34863 0 1.11045
l 1011 1012
v 0.34365 0 1.09977
v 0.344779 0 1.09987
l 1013 1014
v 0.35765 0.216 0.206387
v 0.357437 0.213569 0.206387
l 1015 1016
v 0.357437 0.213569 0.206387
v 0.356806 0.211212 0.206387
l 1017 1018
v 0.355774 0.209 0.206387
v 0.354375 0.207001 0.206387
l 1019 1020
v 0.356806 0.211212 0.206387
v 0.355774 0.209 0.206387
l 1021 1022
v 0.352649 0.205275 0.206387
v 0.35065 0.203876 0.206387
l 1023 1024
v 0.354375 0.207001 0.206387
v 0.352649 0.205275 0.206387
l 1025 1026
v 0.348438 0.202844 0.206387
v 0.346081 0.202213 0.206387
l 1027 1028
v 0.35065 0.203876 0.206387
v 0.348438 0.202844 0.206387
l 1029 1030
v 0.34365 0.202 0.206387
v 0.341219 0.202213 0.206387
l 1031 1032
v 0.346081 0.202213 0.206387
v 0.34365 0.202 0.206387
l 1033 1034
v 0.341219 0.202213 0.206387
v 0.338862 0.202844 0.206387
l 1035 1036
v 0.338862 0.202844 0.206387
v 0.33665 0.203876 0.206387
l 1037 1038
v 0.33665 0.203876 0.206387
v 0.334651 0.205275 0.206387
l 1039 1040
v 0.334651 0.205275 0.206387
v 0.332925 0.207001 0.206387
l 1041 1042
v 0.332925 0.207001 0.206387
v 0.331526 0.209 0.206387
l 1043 1044
v 0.331526 0.209 0.206387
v 0.330494 0.211212 0.206387
l 1045 1046
v 0.330494 0.211212 0.206387
v 0.329863 0.213569 0.206387
l 1047 1048
v 0.329863 0.213569 0.206387
v 0.32965 0.216 0.206387
l 1049 1050
v 0.334651 0.226725 0.138387
v 0.33665 0.228124 0.138387
l 1051 1052
v 0.33665 0.228124 0.138387
v 0.338862 0.229156 0.138387
l 1053 1054
v 0.338862 0.229156 0.138387
v 0.341219 0.229787 0.138387
l 1055 1056
v 0.341219 0.229787 0.138387
v 0.34365 0.23 0.138387
l 1057 1058
v 0.34365 0.23 0.138387
v 0.346081 0.229787 0.138387
l 1059 1060
v 0.346081 0.229787 0.138387
v 0.348438 0.229156 0.138387
l 1061 1062
v 0.348438 0.229156 0.138387
v 0.35065 0.228124 0.138387
l 1063 1064
v 0.35065 0.228124 0.138387
v 0.352649 0.226725 0.138387
l 1065 1066
v 0.352649 0.226725 0.138387
v 0.354375 0.224999 0.138387
l 1067 1068
v 0.354375 0.224999 0.138387
v 0.355774 0.223 0.138387
l 1069 1070
v 0.355774 0.223 0.138387
v 0.356806 0.220788 0.138387
l 1071 1072
v 0.356806 0.220788 0.138387
v 0.357437 0.218431 0.138387
l 1073 1074
v 0.357437 0.218431 0.138387
v 0.35765 0.216 0.138387
l 1075 1076
v 0.35765 0.216 0.138387
v 0.357437 0.213569 0.138387
l 1077 1078
v 0.357437 0.213569 0.138387
v 0.356806 0.211212 0.138387
l 1079 1080
v 0.356806 0.211212 0.138387
v 0.355774 0.209 0.138387
l 1081 1082
v 0.355774 0.209 0.138387
v 0.354375 0.207001 0.138387
l 1083 1084
v 0.354375 0.207001 0.138387
v 0.352649 0.205275 0.138387
l 1085 1086
v 0.352649 0.205275 0.138387
v 0.35065 0.203876 0.138387
l 1087 1088
v 0.35065 0.203876 0.138387
v 0.348438 0.202844 0.138387
l 1089 1090
v 0.348438 0.202844 0.138387
v 0.346081 0.202213 0.138387
l 1091 1092
v 0.346081 0.202213 0.138387
v 0.34365 0.202 0.138387
l 1093 1094
v 0.34365 0.202 0.138387
v 0.341219 0.202213 0.138387
l 1095 1096
v 0.341219 0.202213 0.138387
v 0.338862 0.202844 0.138387
l 1097 1098
v 0.338862 0.202844 0.138387
v 0.33665 0.203876 0.138387
l 1099 1100
v 0.33665 0.203876 0.138387
v 0.334651 0.205275 0.138387
l 1101 1102
v 0.334651 0.205275 0.138387
v 0.332925 0.207001 0.138387
l 1103 1104
v 0.332925 0.207001 0.138387
v 0.331526 0.209 0.138387
l 1105 1106
v 0.331526 0.209 0.138387
v 0.330494 0.211212 0.138387
l 1107 1108
v 0.330494 0.211212 0.138387
v 0.329863 0.213569 0.138387
l 1109 1110
v 0.329863 0.213569 0.138387
v 0.32965 0.216 0.138387
l 1111 1112
v 0.32965 0.216 0.138387
v 0.329863 0.218431 0.138387
l 1113 1114
v 0.329863 0.218431 0.138387
v 0.330494 0.220788 0.138387
l 1115 1116
v 0.330494 0.220788 0.138387
v 0.331526 0.223 0.138387
l 1117 1118
v 0.331526 0.223 0.138387
v 0.332925 0.224999 0.138387
l 1119 1120
v 0.332925 0.224999 0.138387
v 0.334651 0.226725 0.138387
l 1121 1122
v 0.329863 0.218431 0.206387
v 0.32965 0.216 0.206387
l 1123 1124
v 0.330494 0.220788 0.206387
v 0.329863 0.218431 0.206387
l 1125 1126
v 0.331526 0.223 0.206387
v 0.330494 0.220788 0.206387
l 1127 1128
v 0.332925 0.224999 0.206387
v 0.331526 0.223 0.206387
l 1129 1130
v 0.334651 0.226725 0.206387
v 0.332925 0.224999 0.206387
l 1131 1132
v 0.33665 0.228124 0.206387
v 0.334651 0.226725 0.206387
l 1133 1134
v 0.338862 0.229156 0.206387
v 0.33665 0.228124 0.206387
l 1135 1136
v 0.341219 0.229787 0.206387
v 0.338862 0.229156 0.206387
l 1137 1138
v 0.34365 0.23 0.206387
v 0.341219 0.229787 0.206387
l 1139 1140
v 0.346081 0.229787 0.206387
v 0.34365 0.23 0.206387
l 1141 1142
v 0.348438 0.229156 0.206387
v 0.346081 0.229787 0.206387
l 1143 1144
v 0.35065 0.228124 0.206387
v 0.348438 0.229156 0.206387
l 1145 1146
v 0.352649 0.226725 0.206387
v 0.35065 0.228124 0.206387
l 1147 1148
v 0.354375 0.224999 0.206387
v 0.352649 0.226725 0.206387
l 1149 1150
v 0.355774 0.223 0.206387
v 0.354375 0.224999 0.206387
l 1151 1152
v 0.356806 0.220788 0.206387
v 0.355774 0.223 0.206387
l 1153 1154
v 0.357437 0.218431 0.206387
v 0.356806 0.220788 0.206387
l 1155 1156
v 0.35765 0.216 0.206387
v 0.357437 0.218431 0.206387
l 1157 1158
v 0.34365 0.167 0.158387
v 0.341219 0.167 0.158599
l 1159 1160
v 0.341219 0.167 0.158599
v 0.338862 0.167 0.159231
l 1161 1162
v 0.338862 0.167 0.159231
v 0.33665 0.167 0.160262
l 1163 1164
v 0.33665 0.167 0.160262
v 0.334651 0.167 0.161662
l 1165 1166
v 0.334651 0.167 0.161662
v 0.332925 0.167 0.163388
l 1167 1168
v 0.332925 0.167 0.163388
v 0.331526 0.167 0.165387
l 1169 1170
v 0.331526 0.167 0.165387
v 0.330494 0.167 0.167599
l 1171 1172
v 0.330494 0.167 0.167599
v 0.329863 0.167 0.169956
l 1173 1174
v 0.329863 0.167 0.169956
v 0.32965 0.167 0.172387
l 1175 1176
v 0.32965 0.167 0.172387
v 0.329863 0.167 0.174818
l 1177 1178
v 0.330494 0.167 0.177175
v 0.331526 0.167 0.179387
l 1179 1180
v 0.329863 0.167 0.174818
v 0.330494 0.167 0.177175
l 1181 1182
v 0.332925 0.167 0.181386
v 0.334651 0.167 0.183111
l 1183 1184
v 0.331526 0.167 0.179387
v 0.332925 0.167 0.181386
l 1185 1186
v 0.33665 0.167 0.184511
v 0.338862 0.167 0.185542
l 1187 1188
v 0.334651 0.167 0.183111
v 0.33665 0.167 0.184511
l 1189 1190
v 0.341219 0.167 0.186174
v 0.34365 0.167 0.186387
l 1191 1192
v 0.338862 0.167 0.185542
v 0.341219 0.167 0.186174
l 1193 1194
v 0.35065 0.167 0.184511
v 0.348438 0.167 0.185542
l 1195 1196
v 0.348438 0.167 0.185542
v 0.346081 0.167 0.186174
l 1197 1198
v 0.346081 0.167 0.186174
v 0.34365 0.167 0.186387
l 1199 1200
v 0.34365 0.167 0.158387
v 0.346081 0.167 0.158599
l 1201 1202
v 0.346081 0.167 0.158599
v 0.348438 0.167 0.159231
l 1203 1204
v 0.348438 0.167 0.159231
v 0.35065 0.167 0.160262
l 1205 1206
v 0.35065 0.167 0.160262
v 0.352649 0.167 0.161662
l 1207 1208
v 0.352649 0.167 0.161662
v 0.354375 0.167 0.163388
l 1209 1210
v 0.354375 0.167 0.163388
v 0.355774 0.167 0.165387
l 1211 1212
v 0.355774 0.167 0.165387
v 0.356806 0.167 0.167599
l 1213 1214
v 0.356806 0.167 0.167599
v 0.357437 0.167 0.169956
l 1215 1216
v 0.357437 0.167 0.169956
v 0.35765 0.167 0.172387
l 1217 1218
v 0.35765 0.167 0.172387
v 0.357437 0.167 0.174818
l 1219 1220
v 0.357437 0.167 0.174818
v 0.356806 0.167 0.177175
l 1221 1222
v 0.356806 0.167 0.177175
v 0.355774 0.167 0.179387
l 1223 1224
v 0.355774 0.167 0.179387
v 0.354375 0.167 0.181386
l 1225 1226
v 0.354375 0.167 0.181386
v 0.352649 0.167 0.183111
l 1227 1228
v 0.352649 0.167 0.183111
v 0.35065 0.167 0.184511
l 1229 1230
v 0.34365 0 0.165887
v 0.342521 0 0.165985
l 1231 1232
v 0.342521 0.018 0.165985
v 0.34365 0.018 0.165887
l 1233 1234
v 0.342521 0 0.165985
v 0.341427 0 0.166279
l 1235 1236
v 0.341427 0.018 0.166279
v 0.342521 0.018 0.165985
l 1237 1238
v 0.341427 0 0.166279
v 0.3404 0 0.166758
l 1239 1240
v 0.3404 0.018 0.166758
v 0.341427 0.018 0.166279
l 1241 1242
v 0.3404 0 0.166758
v 0.339472 0 0.167407
l 1243 1244
v 0.339472 0.018 0.167407
v 0.3404 0.018 0.166758
l 1245 1246
v 0.339472 0 0.167407
v 0.338671 0 0.168209
l 1247 1248
v 0.338671 0.018 0.168209
v 0.339472 0.018 0.167407
l 1249 1250
v 0.338671 0 0.168209
v 0.338021 0 0.169137
l 1251 1252
v 0.338021 0.018 0.169137
v 0.338671 0.018 0.168209
l 1253 1254
v 0.338021 0 0.169137
v 0.337542 0 0.170164
l 1255 1256
v 0.337542 0.018 0.170164
v 0.338021 0.018 0.169137
l 1257 1258
v 0.337542 0 0.170164
v 0.337249 0 0.171258
l 1259 1260
v 0.337249 0.018 0.171258
v 0.337542 0.018 0.170164
l 1261 1262
v 0.337249 0 0.171258
v 0.33715 0 0.172387
l 1263 1264
v 0.33715 0.018 0.172387
v 0.337249 0.018 0.171258
l 1265 1266
v 0.33715 0 0.172387
v 0.337249 0 0.173515
l 1267 1268
v 0.337249 0.018 0.173515
v 0.33715 0.018 0.172387
l 1269 1270
v 0.337249 0 0.173515
v 0.337542 0 0.17461
l 1271 1272
v 0.337542 0.018 0.17461
v 0.337249 0.018 0.173515
l 1273 1274
v 0.337542 0 0.17461
v 0.338021 0 0.175637
l 1275 1276
v 0.338021 0.018 0.175637
v 0.337542 0.018 0.17461
l 1277 1278
v 0.338021 0 0.175637
v 0.338671 0 0.176565
l 1279 1280
v 0.338671 0.018 0.176565
v 0.338021 0.018 0.175637
l 1281 1282
v 0.338671 0 0.176565
v 0.339472 0 0.177366
l 1283 1284
v 0.339472 0.018 0.177366
v 0.338671 0.018 0.176565
l 1285 1286
v 0.339472 0 0.177366
v 0.3404 0 0.178016
l 1287 1288
v 0.3404 0.018 0.178016
v 0.339472 0.018 0.177366
l 1289 1290
v 0.3404 0 0.178016
v 0.341427 0 0.178495
l 1291 1292
v 0.341427 0.018 0.178495
v 0.3404 0.018 0.178016
l 1293 1294
v 0.341427 0 0.178495
v 0.342521 0 0.178788
l 1295 1296
v 0.342521 0.018 0.178788
v 0.341427 0.018 0.178495
l 1297 1298
v 0.342521 0 0.178788
v 0.34365 0 0.178887
l 1299 1300
v 0.34365 0.018 0.178887
v 0.342521 0.018 0.178788
l 1301 1302
v 0.3469 0.018 0.166758
v 0.345873 0.018 0.166279
l 1303 1304
v 0.345873 0.018 0.166279
v 0.344779 0.018 0.165985
l 1305 1306
v 0.344779 0.018 0.165985
v 0.34365 0.018 0.165887
l 1307 1308
v 0.34365 0.018 0.178887
v 0.344779 0.018 0.178788
l 1309 1310
v 0.344779 0.018 0.178788
v 0.345873 0.018 0.178495
l 1311 1312
v 0.345873 0.018 0.178495
v 0.3469 0.018 0.178016
l 1313 1314
v 0.3469 0.018 0.178016
v 0.347828 0.018 0.177366
l 1315 1316
v 0.347828 0.018 0.177366
v 0.34863 0.018 0.176565
l 1317 1318
v 0.34863 0.018 0.176565
v 0.349279 0.018 0.175637
l 1319 1320
v 0.349279 0.018 0.175637
v 0.349758 0.018 0.17461
l 1321 1322
v 0.349758 0.018 0.17461
v 0.350051 0.018 0.173515
l 1323 1324
v 0.350051 0.018 0.173515
v 0.35015 0.018 0.172387
l 1325 1326
v 0.35015 0.018 0.172387
v 0.350051 0.018 0.171258
l 1327 1328
v 0.350051 0.018 0.171258
v 0.349758 0.018 0.170164
l 1329 1330
v 0.349758 0.018 0.170164
v 0.349279 0.018 0.169137
l 1331 1332
v 0.349279 0.018 0.169137
v 0.34863 0.018 0.168209
l 1333 1334
v 0.34863 0.018 0.168209
v 0.347828 0.018 0.167407
l 1335 1336
v 0.347828 0.018 0.167407
v 0.3469 0.018 0.166758
l 1337 1338
v 0.34365 0 0.165887
v 0.344779 0 0.165985
l 1339 1340
v 0.344779 0 0.165985
v 0.345873 0 0.166279
l 1341 1342
v 0.345873 0 0.166279
v 0.3469 0 0.166758
l 1343 1344
v 0.3469 0 0.166758
v 0.347828 0 0.167407
l 1345 1346
v 0.344779 0 0.178788
v 0.34365 0 0.178887
l 1347 1348
v 0.345873 0 0.178495
v 0.344779 0 0.178788
l 1349 1350
v 0.347828 0 0.167407
v 0.34863 0 0.168209
l 1351 1352
v 0.347828 0 0.177366
v 0.3469 0 0.178016
l 1353 1354
v 0.3469 0 0.178016
v 0.345873 0 0.178495
l 1355 1356
v 0.34863 0 0.168209
v 0.349279 0 0.169137
l 1357 1358
v 0.349279 0 0.169137
v 0.349758 0 0.170164
l 1359 1360
v 0.349758 0 0.170164
v 0.350051 0 0.171258
l 1361 1362
v 0.349758 0 0.17461
v 0.349279 0 0.175637
l 1363 1364
v 0.350051 0 0.173515
v 0.349758 0 0.17461
l 1365 1366
v 0.350051 0 0.171258
v 0.35015 0 0.172387
l 1367 1368
v 0.35015 0 0.172387
v 0.350051 0 0.173515
l 1369 1370
v 0.34863 0 0.176565
v 0.347828 0 0.177366
l 1371 1372
v 0.349279 0 0.175637
v 0.34863 0 0.176565
l 1373 1374
v 0.334651 0.226725 1.15727
v 0.33665 0.228124 1.15727
l 1375 1376
v 0.33665 0.228124 1.15727
v 0.338862 0.229156 1.15727
l 1377 1378
v 0.338862 0.229156 1.15727
v 0.341219 0.229787 1.15727
l 1379 1380
v 0.341219 0.229787 1.15727
v 0.34365 0.23 1.15727
l 1381 1382
v 0.34365 0.23 1.15727
v 0.346081 0.229787 1.15727
l 1383 1384
v 0.346081 0.229787 1.15727
v 0.348438 0.229156 1.15727
l 1385 1386
v 0.348438 0.229156 1.15727
v 0.35065 0.228124 1.15727
l 1387 1388
v 0.35065 0.228124 1.15727
v 0.352649 0.226725 1.15727
l 1389 1390
v 0.352649 0.226725 1.15727
v 0.354375 0.224999 1.15727
l 1391 1392
v 0.354375 0.224999 1.15727
v 0.355774 0.223 1.15727
l 1393 1394
v 0.355774 0.223 1.15727
v 0.356806 0.220788 1.15727
l 1395 1396
v 0.356806 0.220788 1.15727
v 0.357437 0.218431 1.15727
l 1397 1398
v 0.357437 0.218431 1.15727
v 0.35765 0.216 1.15727
l 1399 1400
v 0.32965 0.216 1.15727
v 0.329863 0.218431 1.15727
l 1401 1402
v 0.329863 0.218431 1.15727
v 0.330494 0.220788 1.15727
l 1403 1404
v 0.330494 0.220788 1.15727
v 0.331526 0.223 1.15727
l 1405 1406
v 0.331526 0.223 1.15727
v 0.332925 0.224999 1.15727
l 1407 1408
v 0.332925 0.224999 1.15727
v 0.334651 0.226725 1.15727
l 1409 1410
v 0.328623 0.19676 1.19627
v 0.329669 0.216733 1.19627
l 1411 1412
v 0.357631 0.215267 1.19627
v 0.356584 0.195295 1.19627
l 1413 1414
v 0.356584 0.195295 1.19627
v 0.328623 0.19676 1.19627
l 1415 1416
v 0.369663 0.234664 1.27127
v 0.367569 0.194719 1.27127
l 1417 1418
v 0.367569 0.194719 1.27127
v 0.370565 0.194562 1.24927
l 1419 1420
v 0.357631 0.215267 1.19627
v 0.358678 0.23524 1.19627
l 1421 1422
v 0.358678 0.23524 1.19627
v 0.367845 0.234759 1.23103
l 1423 1424
v 0.370565 0.194562 1.24927
v 0.356584 0.195295 1.19627
l 1425 1426
v 0.329669 0.216733 1.19627
v 0.330716 0.236705 1.19627
l 1427 1428
v 0.330716 0.236705 1.19627
v 0.358678 0.23524 1.19627
l 1429 1430
v 0.321548 0.237186 1.23103
v 0.330716 0.236705 1.19627
l 1431 1432
v 0.328623 0.19676 1.19627
v 0.314642 0.197493 1.24927
l 1433 1434
v 0.314642 0.197493 1.24927
v 0.317638 0.197336 1.27127
l 1435 1436
v 0.317638 0.197336 1.27127
v 0.319731 0.237281 1.27127
l 1437 1438
v 0.367569 0.194719 1.27127
v 0.317638 0.197336 1.27127
l 1439 1440
v 0.37238 0.234522 1.25936
v 0.370795 0.234605 1.26296
l 1441 1442
v 0.373709 0.234452 1.2544
v 0.37238 0.234522 1.25936
l 1443 1444
v 0.367845 0.234759 1.23103
v 0.37021 0.234636 1.23452
l 1445 1446
v 0.37021 0.234636 1.23452
v 0.37238 0.234522 1.23918
l 1447 1448
v 0.37238 0.234522 1.23918
v 0.373709 0.234452 1.24415
l 1449 1450
v 0.373709 0.234452 1.24415
v 0.374157 0.234429 1.24927
l 1451 1452
v 0.374157 0.234429 1.24927
v 0.373709 0.234452 1.2544
l 1453 1454
v 0.319184 0.23731 1.23452
v 0.321548 0.237186 1.23103
l 1455 1456
v 0.318599 0.23734 1.26296
v 0.317014 0.237423 1.25936
l 1457 1458
v 0.317014 0.237423 1.25936
v 0.315685 0.237493 1.2544
l 1459 1460
v 0.315685 0.237493 1.2544
v 0.315237 0.237516 1.24927
l 1461 1462
v 0.315237 0.237516 1.24927
v 0.315685 0.237493 1.24415
l 1463 1464
v 0.315685 0.237493 1.24415
v 0.317014 0.237423 1.23918
l 1465 1466
v 0.317014 0.237423 1.23918
v 0.319184 0.23731 1.23452
l 1467 1468
v 0.325761 0.236965 1.27187
v 0.325071 0.237001 1.27127
l 1469 1470
v 0.364323 0.234944 1.27127
v 0.363633 0.23498 1.27187
l 1471 1472
v 0.363633 0.23498 1.27187
v 0.359427 0.235201 1.27482
l 1473 1474
v 0.359427 0.235201 1.27482
v 0.354773 0.235445 1.27699
l 1475 1476
v 0.329967 0.236744 1.27482
v 0.325761 0.236965 1.27187
l 1477 1478
v 0.334621 0.236501 1.27699
v 0.329967 0.236744 1.27482
l 1479 1480
v 0.339581 0.236241 1.27832
v 0.334621 0.236501 1.27699
l 1481 1482
v 0.354773 0.235445 1.27699
v 0.349813 0.235704 1.27832
l 1483 1484
v 0.349813 0.235704 1.27832
v 0.344697 0.235973 1.27877
l 1485 1486
v 0.344697 0.235973 1.27877
v 0.339581 0.236241 1.27832
l 1487 1488
v 0.375593 0.270403 1.24415
v 0.37604 0.270379 1.24927
l 1489 1490
v 0.374264 0.270472 1.23918
v 0.375593 0.270403 1.24415
l 1491 1492
v 0.372094 0.270586 1.23452
v 0.374264 0.270472 1.23918
l 1493 1494
v 0.369148 0.270741 1.23031
v 0.372094 0.270586 1.23452
l 1495 1496
v 0.365517 0.270931 1.22668
v 0.369148 0.270741 1.23031
l 1497 1498
v 0.361311 0.271151 1.22373
v 0.365517 0.270931 1.22668
l 1499 1500
v 0.356657 0.271395 1.22155
v 0.361311 0.271151 1.22373
l 1501 1502
v 0.351697 0.271655 1.22022
v 0.356657 0.271395 1.22155
l 1503 1504
v 0.346581 0.271923 1.21977
v 0.351697 0.271655 1.22022
l 1505 1506
v 0.341465 0.272191 1.22022
v 0.346581 0.271923 1.21977
l 1507 1508
v 0.336505 0.272451 1.22155
v 0.341465 0.272191 1.22022
l 1509 1510
v 0.331851 0.272695 1.22373
v 0.336505 0.272451 1.22155
l 1511 1512
v 0.327645 0.272916 1.22668
v 0.331851 0.272695 1.22373
l 1513 1514
v 0.324014 0.273106 1.23031
v 0.327645 0.272916 1.22668
l 1515 1516
v 0.321068 0.27326 1.23452
v 0.324014 0.273106 1.23031
l 1517 1518
v 0.318898 0.273374 1.23918
v 0.321068 0.27326 1.23452
l 1519 1520
v 0.317569 0.273444 1.24415
v 0.318898 0.273374 1.23918
l 1521 1522
v 0.317121 0.273467 1.24927
v 0.317569 0.273444 1.24415
l 1523 1524
v 0.375593 0.270403 1.2544
v 0.37604 0.270379 1.24927
l 1525 1526
v 0.317121 0.273467 1.24927
v 0.317569 0.273444 1.2544
l 1527 1528
v 0.317569 0.273444 1.2544
v 0.318898 0.273374 1.25936
l 1529 1530
v 0.351697 0.271655 1.27832
v 0.356657 0.271395 1.27699
l 1531 1532
v 0.321068 0.27326 1.26402
v 0.324014 0.273106 1.26824
l 1533 1534
v 0.331851 0.272695 1.27482
v 0.336505 0.272451 1.27699
l 1535 1536
v 0.336505 0.272451 1.27699
v 0.341465 0.272191 1.27832
l 1537 1538
v 0.365517 0.270931 1.27187
v 0.369148 0.270741 1.26824
l 1539 1540
v 0.327645 0.272916 1.27187
v 0.331851 0.272695 1.27482
l 1541 1542
v 0.369148 0.270741 1.26824
v 0.372094 0.270586 1.26402
l 1543 1544
v 0.372094 0.270586 1.26402
v 0.374264 0.270472 1.25936
l 1545 1546
v 0.374264 0.270472 1.25936
v 0.375593 0.270403 1.2544
l 1547 1548
v 0.324014 0.273106 1.26824
v 0.327645 0.272916 1.27187
l 1549 1550
v 0.341465 0.272191 1.27832
v 0.346581 0.271923 1.27877
l 1551 1552
v 0.346581 0.271923 1.27877
v 0.351697 0.271655 1.27832
l 1553 1554
v 0.318898 0.273374 1.25936
v 0.321068 0.27326 1.26402
l 1555 1556
v 0.356657 0.271395 1.27699
v 0.361311 0.271151 1.27482
l 1557 1558
v 0.361311 0.271151 1.27482
v 0.365517 0.270931 1.27187
l 1559 1560
v 0.35765 0.216 0.1215
v 0.357437 0.213569 0.1215
l 1561 1562
v 0.357437 0.213569 0.1215
v 0.356806 0.211212 0.1215
l 1563 1564
v 0.356806 0.211212 0.1215
v 0.355774 0.209 0.1215
l 1565 1566
v 0.355774 0.209 0.1215
v 0.354375 0.207001 0.1215
l 1567 1568
v 0.354375 0.207001 0.1215
v 0.352649 0.205275 0.1215
l 1569 1570
v 0.352649 0.205275 0.1215
v 0.35065 0.203876 0.1215
l 1571 1572
v 0.35065 0.203876 0.1215
v 0.348438 0.202844 0.1215
l 1573 1574
v 0.348438 0.202844 0.1215
v 0.346081 0.202213 0.1215
l 1575 1576
v 0.346081 0.202213 0.1215
v 0.34365 0.202 0.1215
l 1577 1578
v 0.34365 0.202 0.1215
v 0.341219 0.202213 0.1215
l 1579 1580
v 0.341219 0.202213 0.1215
v 0.338862 0.202844 0.1215
l 1581 1582
v 0.338862 0.202844 0.1215
v 0.33665 0.203876 0.1215
l 1583 1584
v 0.33665 0.203876 0.1215
v 0.334651 0.205275 0.1215
l 1585 1586
v 0.334651 0.205275 0.1215
v 0.332925 0.207001 0.1215
l 1587 1588
v 0.332925 0.207001 0.1215
v 0.331526 0.209 0.1215
l 1589 1590
v 0.331526 0.209 0.1215
v 0.330494 0.211212 0.1215
l 1591 1592
v 0.330494 0.211212 0.1215
v 0.329863 0.213569 0.1215
l 1593 1594
v 0.329863 0.213569 0.1215
v 0.32965 0.216 0.1215
l 1595 1596
v 0.35765 0.216 0.1215
v 0.357437 0.218431 0.1215
l 1597 1598
v 0.357437 0.218431 0.1215
v 0.356806 0.220788 0.1215
l 1599 1600
v 0.356806 0.220788 0.1215
v 0.355774 0.223 0.1215
l 1601 1602
v 0.355774 0.223 0.1215
v 0.354375 0.224999 0.1215
l 1603 1604
v 0.354375 0.224999 0.1215
v 0.352649 0.226725 0.1215
l 1605 1606
v 0.352649 0.226725 0.1215
v 0.35065 0.228124 0.1215
l 1607 1608
v 0.35065 0.228124 0.1215
v 0.348438 0.229156 0.1215
l 1609 1610
v 0.348438 0.229156 0.1215
v 0.346081 0.229787 0.1215
l 1611 1612
v 0.346081 0.229787 0.1215
v 0.34365 0.23 0.1215
l 1613 1614
v 0.34365 0.23 0.1215
v 0.341219 0.229787 0.1215
l 1615 1616
v 0.341219 0.229787 0.1215
v 0.338862 0.229156 0.1215
l 1617 1618
v 0.338862 0.229156 0.1215
v 0.33665 0.228124 0.1215
l 1619 1620
v 0.33665 0.228124 0.1215
v 0.334651 0.226725 0.1215
l 1621 1622
v 0.334651 0.226725 0.1215
v 0.332925 0.224999 0.1215
l 1623 1624
v 0.332925 0.224999 0.1215
v 0.331526 0.223 0.1215
l 1625 1626
v 0.331526 0.223 0.1215
v 0.330494 0.220788 0.1215
l 1627 1628
v 0.330494 0.220788 0.1215
v 0.329863 0.218431 0.1215
l 1629 1630
v 0.329863 0.218431 0.1215
v 0.32965 0.216 0.1215
l 1631 1632
v 0.329669 0.216733 0.0825
v 0.328623 0.19676 0.0825
l 1633 1634
v 0.356584 0.195295 0.0825
v 0.357631 0.215267 0.0825
l 1635 1636
v 0.328623 0.19676 0.0825
v 0.356584 0.195295 0.0825
l 1637 1638
v 0.370565 0.194562 0.0295
v 0.367569 0.194719 0.00750005
l 1639 1640
v 0.367569 0.194719 0.00750005
v 0.369663 0.234664 0.00750005
l 1641 1642
v 0.319731 0.237281 0.00750005
v 0.317638 0.197336 0.00750005
l 1643 1644
v 0.317638 0.197336 0.00750005
v 0.314642 0.197493 0.0295
l 1645 1646
v 0.314642 0.197493 0.0295
v 0.328623 0.19676 0.0825
l 1647 1648
v 0.329669 0.216733 0.0825
v 0.330716 0.236705 0.0825
l 1649 1650
v 0.330716 0.236705 0.0825
v 0.321548 0.237186 0.0477463
l 1651 1652
v 0.357631 0.215267 0.0825
v 0.358678 0.23524 0.0825
l 1653 1654
v 0.358678 0.23524 0.0825
v 0.330716 0.236705 0.0825
l 1655 1656
v 0.356584 0.195295 0.0825
v 0.370565 0.194562 0.0295
l 1657 1658
v 0.367845 0.234759 0.0477463
v 0.358678 0.23524 0.0825
l 1659 1660
v 0.317638 0.197336 0.00750005
v 0.367569 0.194719 0.00750005
l 1661 1662
v 0.363633 0.23498 0.00690174
v 0.364323 0.234944 0.00750005
l 1663 1664
v 0.325071 0.237001 0.00750005
v 0.325761 0.236965 0.00690174
l 1665 1666
v 0.325761 0.236965 0.00690174
v 0.329967 0.236744 0.00395226
l 1667 1668
v 0.329967 0.236744 0.00395226
v 0.334621 0.236501 0.00177908
l 1669 1670
v 0.359427 0.235201 0.00395226
v 0.363633 0.23498 0.00690174
l 1671 1672
v 0.354773 0.235445 0.00177908
v 0.359427 0.235201 0.00395226
l 1673 1674
v 0.349813 0.235704 0.000448227
v 0.354773 0.235445 0.00177908
l 1675 1676
v 0.334621 0.236501 0.00177908
v 0.339581 0.236241 0.000448227
l 1677 1678
v 0.344697 0.235973 0
v 0.349813 0.235704 0.000448227
l 1679 1680
v 0.339581 0.236241 0.000448227
v 0.344697 0.235973 0
l 1681 1682
v 0.317014 0.237423 0.0194104
v 0.318599 0.23734 0.0158154
l 1683 1684
v 0.315685 0.237493 0.0243773
v 0.317014 0.237423 0.0194104
l 1685 1686
v 0.321548 0.237186 0.0477463
v 0.319184 0.23731 0.04425
l 1687 1688
v 0.319184 0.23731 0.04425
v 0.317014 0.237423 0.0395896
l 1689 1690
v 0.317014 0.237423 0.0395896
v 0.315685 0.237493 0.0346227
l 1691 1692
v 0.315685 0.237493 0.0346227
v 0.315237 0.237516 0.0295
l 1693 1694
v 0.315237 0.237516 0.0295
v 0.315685 0.237493 0.0243773
l 1695 1696
v 0.374157 0.234429 0.0295
v 0.373709 0.234452 0.0243773
l 1697 1698
v 0.375593 0.270403 0.0243773
v 0.37604 0.270379 0.0295
l 1699 1700
v 0.373709 0.234452 0.0243773
v 0.37238 0.234522 0.0194104
l 1701 1702
v 0.374264 0.270472 0.0194104
v 0.375593 0.270403 0.0243773
l 1703 1704
v 0.37238 0.234522 0.0194104
v 0.370795 0.234605 0.0158154
l 1705 1706
v 0.372094 0.270586 0.01475
v 0.374264 0.270472 0.0194104
l 1707 1708
v 0.369148 0.270741 0.0105377
v 0.372094 0.270586 0.01475
l 1709 1710
v 0.365517 0.270931 0.00690174
v 0.369148 0.270741 0.0105377
l 1711 1712
v 0.361311 0.271151 0.00395226
v 0.365517 0.270931 0.00690174
l 1713 1714
v 0.356657 0.271395 0.00177908
v 0.361311 0.271151 0.00395226
l 1715 1716
v 0.351697 0.271655 0.000448227
v 0.356657 0.271395 0.00177908
l 1717 1718
v 0.346581 0.271923 0
v 0.351697 0.271655 0.000448227
l 1719 1720
v 0.341465 0.272191 0.000448227
v 0.346581 0.271923 0
l 1721 1722
v 0.336505 0.272451 0.00177908
v 0.341465 0.272191 0.000448227
l 1723 1724
v 0.331851 0.272695 0.00395226
v 0.336505 0.272451 0.00177908
l 1725 1726
v 0.327645 0.272916 0.00690174
v 0.331851 0.272695 0.00395226
l 1727 1728
v 0.324014 0.273106 0.0105377
v 0.327645 0.272916 0.00690174
l 1729 1730
v 0.321068 0.27326 0.01475
v 0.324014 0.273106 0.0105377
l 1731 1732
v 0.318898 0.273374 0.0194104
v 0.321068 0.27326 0.01475
l 1733 1734
v 0.317569 0.273444 0.0243773
v 0.318898 0.273374 0.0194104
l 1735 1736
v 0.317121 0.273467 0.0295
v 0.317569 0.273444 0.0243773
l 1737 1738
v 0.317121 0.273467 0.0295
v 0.317569 0.273444 0.0346227
l 1739 1740
v 0.365517 0.270931 0.0520983
v 0.369148 0.270741 0.0484623
l 1741 1742
v 0.369148 0.270741 0.0484623
v 0.372094 0.270586 0.04425
l 1743 1744
v 0.356657 0.271395 0.0572209
v 0.361311 0.271151 0.0550478
l 1745 1746
v 0.361311 0.271151 0.0550478
v 0.365517 0.270931 0.0520983
l 1747 1748
v 0.372094 0.270586 0.04425
v 0.374264 0.270472 0.0395896
l 1749 1750
v 0.374264 0.270472 0.0395896
v 0.375593 0.270403 0.0346227
l 1751 1752
v 0.375593 0.270403 0.0346227
v 0.37604 0.270379 0.0295
l 1753 1754
v 0.317569 0.273444 0.0346227
v 0.318898 0.273374 0.0395896
l 1755 1756
v 0.346581 0.271923 0.059
v 0.351697 0.271655 0.0585519
l 1757 1758
v 0.351697 0.271655 0.0585519
v 0.356657 0.271395 0.0572209
l 1759 1760
v 0.327645 0.272916 0.0520983
v 0.331851 0.272695 0.0550478
l 1761 1762
v 0.331851 0.272695 0.0550478
v 0.336505 0.272451 0.0572209
l 1763 1764
v 0.324014 0.273106 0.0484623
v 0.327645 0.272916 0.0520983
l 1765 1766
v 0.318898 0.273374 0.0395896
v 0.321068 0.27326 0.04425
l 1767 1768
v 0.321068 0.27326 0.04425
v 0.324014 0.273106 0.0484623
l 1769 1770
v 0.341465 0.272191 0.0585519
v 0.346581 0.271923 0.059
l 1771 1772
v 0.336505 0.272451 0.0572209
v 0.341465 0.272191 0.0585519
l 1773 1774
v 0.37021 0.234636 0.04425
v 0.367845 0.234759 0.0477463
l 1775 1776
v 0.374157 0.234429 0.0295
v 0.373709 0.234452 0.0346227
l 1777 1778
v 0.373709 0.234452 0.0346227
v 0.37238 0.234522 0.0395896
l 1779 1780
v 0.37238 0.234522 0.0395896
v 0.37021 0.234636 0.04425
l 1781 1782
v 0.00514589 0.250946 0.242327
v 0.00514589 0.250946 0.262327
l 1783 1784
v 0.0100949 0.250513 0.242327
v 0.00514589 0.250946 0.242327
l 1785 1786
v 0.0148935 0.249227 0.242327
v 0.0100949 0.250513 0.242327
l 1787 1788
v 0.0193959 0.247127 0.242327
v 0.0148935 0.249227 0.242327
l 1789 1790
v 0.0234653 0.244278 0.242327
v 0.0193959 0.247127 0.242327
l 1791 1792
v 0.0269782 0.240765 0.242327
v 0.0234653 0.244278 0.242327
l 1793 1794
v 0.0298276 0.236696 0.242327
v 0.0269782 0.240765 0.242327
l 1795 1796
v 0.0319271 0.232193 0.242327
v 0.0298276 0.236696 0.242327
l 1797 1798
v 0.0332129 0.227395 0.242327
v 0.0319271 0.232193 0.242327
l 1799 1800
v 0.0336459 0.222446 0.242327
v 0.0332129 0.227395 0.242327
l 1801 1802
v 0.0332129 0.217497 0.242327
v 0.0336459 0.222446 0.242327
l 1803 1804
v 0.0319271 0.212698 0.242327
v 0.0332129 0.217497 0.242327
l 1805 1806
v 0.0298276 0.208196 0.242327
v 0.0319271 0.212698 0.242327
l 1807 1808
v 0.0269782 0.204126 0.242327
v 0.0298276 0.208196 0.242327
l 1809 1810
v 0.0234653 0.200613 0.242327
v 0.0269782 0.204126 0.242327
l 1811 1812
v 0.0193959 0.197764 0.242327
v 0.0234653 0.200613 0.242327
l 1813 1814
v 0.0148935 0.195664 0.242327
v 0.0193959 0.197764 0.242327
l 1815 1816
v 0.0100949 0.194379 0.242327
v 0.0148935 0.195664 0.242327
l 1817 1818
v 0.00514589 0.193946 0.242327
v 0.0100949 0.194379 0.242327
l 1819 1820
v 0.00514589 0.193946 0.262327
v 0.00514589 0.193946 0.242327
l 1821 1822
v 0.00514589 0.193946 0.242327
v 0.00514589 0.250946 0.242327
l 1823 1824
