v 0.319731 0.237281 0.00750005
v 0.369663 0.234664 0.00750005
v 0.319731 0.237281 1.27127
v 0.369663 0.234664 1.27127
v 0.00514589 0.252446 0.262327
v 0.00514589 0.190273 0.262327
v 1.20406 0.375254 0.0942735
v 1.20796 0.374354 0.0942735
v 0.356584 0.195295 1.19627
v 0.328623 0.19676 1.19627
v 0.367569 0.194719 1.27127
v 0.358678 0.23524 1.19627
v 0.330716 0.236705 1.19627
v 0.317638 0.197336 1.27127
v 0.328623 0.19676 0.0825
v 0.356584 0.195295 0.0825
v 0.367569 0.194719 0.00750005
v 0.317638 0.197336 0.00750005
v 0.330716 0.236705 0.0825
v 0.358678 0.23524 0.0825
v 0.00514589 0.250946 0.242327
v 0.00514589 0.193946 0.242327
