# Wavefront OBJ file written 2021-07-21T15:20:58
o Fig_halfmodel_transformed_edgeMesh

# points : 364
# lines  : 362

# <points count="364">
v 0.777149 -2.03403e-06 0.100739
v 0.777149 -2.03403e-06 0.0385666
v 0.945203 -1.20282 0.222648
v 0.945203 -1.19892 0.223547
v 0.695781 -0.352502 0.0585118
v 0.69009 -0.323863 0.057363
v 0.455539 -9.61151e-07 0.135715
v 0.462972 -2.03403e-06 0.134637
v 0.435628 -2.03403e-06 0.139012
v 0.436091 -2.03403e-06 0.138931
v 0.445585 -2.03403e-06 0.137302
v 0.4747 -2.03403e-06 0.133145
v 0.482149 -2.03403e-06 0.132319
v 0.566418 -2.03403e-06 0.0222416
v 0.417149 -2.03403e-06 0.0111628
v 0.629649 -2.03403e-06 0.116529
v 0.777149 -2.03403e-06 0.0407391
v 0.777149 -2.03403e-06 0.0405636
v 0.417149 -2.03403e-06 0.142247
v 0.418525 -2.98771e-06 0.142017
v 0.420865 -2.03403e-06 0.141617
v 0.427595 -2.03403e-06 0.140435
v 0.2009 -2.03403e-06 0.000754528
v 0.150398 -2.03403e-06 0.000766553
v 0.168321 -2.03403e-06 0.151151
v 0.203451 -2.03403e-06 0.155243
v 0.212089 -2.03403e-06 0.000954934
v 0.22821 -2.03403e-06 0.156726
v 0.370973 -2.03403e-06 0.149047
v 0.29691 -2.03403e-06 0.00399754
v 0.346772 -2.03403e-06 0.151895
v 0.073164 -2.03403e-06 0.00641534
v 0.0698081 -2.03403e-06 0.00696248
v 0.245674 -2.03403e-06 0.157162
v 0.288368 -2.03403e-06 0.156403
v 0.32043 -2.03403e-06 0.15437
v 0.101492 -2.03403e-06 0.00309108
v 0.0976404 -2.03403e-06 0.133992
v 0.123397 -2.03403e-06 0.141839
v 0.13008 -2.03403e-06 0.00135833
v 0.140163 -2.03403e-06 0.145911
v 0.162507 -2.03403e-06 0.150222
v 0.0309878 -2.03403e-06 0.100492
v 0.042087 -2.03403e-06 0.108118
v 0.0454935 -2.03403e-06 0.110217
v 0.0516379 -2.03403e-06 0.01074
v 0.0452679 -2.03403e-06 0.0124842
v 0.000227891 -2.03403e-06 0.0534305
v 0.000258434 -2.03403e-06 0.0551776
v 0.00180629 -2.03403e-06 0.0640409
v 0.00248655 -2.03403e-06 0.0660895
v 0.0674663 -2.03403e-06 0.121839
v 0.0834996 -2.03403e-06 0.128747
v 0.00074583 -2.03403e-06 0.0478826
v 0.000519049 -2.03403e-06 0.0493241
v 0.000520137 -2.03403e-06 0.0581555
v 0.00123312 -2.03403e-06 0.0619459
v 0.0346785 -2.03403e-06 0.0160707
v 0.0271041 -2.03403e-06 0.0193504
v 0.00118536 -2.03403e-06 0.045849
v 0.00187962 -2.03403e-06 0.0435096
v 0.00443198 -2.03403e-06 0.070688
v 0.00706606 -2.03403e-06 0.0754924
v 0.00953863 -2.03403e-06 0.0792345
v 0.0167304 -2.03403e-06 0.0879256
v 0.0250175 -2.03403e-06 0.0957301
v 0.0158127 -2.03403e-06 0.026022
v 0.0106985 -2.03403e-06 0.0302696
v 0.0074034 -2.03403e-06 0.0337957
v 0.00668936 -2.03403e-06 0.0346893
v 0.017223 -2.03403e-06 0.0250233
v 0.00443725 -2.03403e-06 0.037991
v 0.00367992 -2.03403e-06 0.0393414
v 0.0235692 -2.03403e-06 0.0211594
v 0.00242189 -2.03403e-06 0.0420521
v 0.872745 -1.19866 0.223606
v 0.872134 -1.19892 0.223546
v 0.923506 -1.20413 0.222345
v 0.923507 -1.19761 0.22385
v 0.910991 -1.20474 0.222203
v 0.911294 -1.19701 0.223989
v 0.899497 -1.20516 0.222107
v 0.899497 -1.19658 0.224088
v 0.889145 -1.20524 0.222088
v 0.886765 -1.19658 0.224087
v 0.886235 -1.20513 0.222114
v 0.879664 -1.19719 0.223947
v 0.879664 -1.20455 0.222247
v 0.87748 -1.1975 0.223875
v 0.875679 -1.2039 0.222397
v 0.875726 -1.19782 0.2238
v 0.874113 -1.20352 0.222484
v 0.872967 -1.20316 0.222569
v 0.873806 -1.1983 0.22369
v 0.871653 -1.20257 0.222705
v 0.872746 -1.20307 0.222588
v 0.876857 -1.17192 0.106623
v 0.876857 -1.17582 0.105723
v 0.238203 -0.324843 0.0671222
v 0.238203 -0.32452 0.0647549
v 0.238203 -0.32451 0.0645377
v 0.238203 -0.352502 0.0640491
v 0.238203 -0.3525 0.0642665
v 0.238203 -0.324282 0.0580095
v 0.238203 -0.329139 0.0536408
v 0.238203 -0.331888 0.0517098
v 0.238203 -0.333943 0.050812
v 0.238203 -0.325565 0.0693999
v 0.238203 -0.352259 0.0666436
v 0.238203 -0.351618 0.0689451
v 0.238203 -0.329852 0.0750571
v 0.238203 -0.328106 0.073426
v 0.238203 -0.349212 0.0550336
v 0.238203 -0.352502 0.0589413
v 0.238203 -0.348456 0.0542046
v 0.238203 -0.330002 0.0529243
v 0.238203 -0.350594 0.071104
v 0.238203 -0.349219 0.0730575
v 0.238203 -0.326663 0.0715218
v 0.238203 -0.338746 0.078047
v 0.238203 -0.336362 0.0778847
v 0.238203 -0.341123 0.0778016
v 0.238203 -0.334041 0.0773194
v 0.238203 -0.33185 0.0763677
v 0.238203 -0.336115 0.050254
v 0.238203 -0.338349 0.0500499
v 0.238203 -0.340586 0.0502052
v 0.238203 -0.347531 0.0747485
v 0.238203 -0.34558 0.076128
v 0.238203 -0.343423 0.0771556
v 0.238203 -0.34277 0.0507157
v 0.238203 -0.344845 0.0515684
v 0.238203 -0.346756 0.0527414
v 0.86132 -1.16001 0.0886626
v 0.86288 -1.16257 0.0898478
v 0.87292 -1.17353 0.0999714
v 0.873395 -1.17387 0.100585
v 0.86844 -1.16955 0.0948804
v 0.868539 -1.16965 0.0949812
v 0.87361 -1.17025 0.102109
v 0.873146 -1.16996 0.10158
v 0.871459 -1.16882 0.099805
v 0.867259 -1.16537 0.0961405
v 0.865862 -1.16402 0.0950975
v 0.875362 -1.17124 0.104331
v 0.870261 -1.16792 0.0986652
v 0.868663 -1.16662 0.0972684
v 0.875228 -1.17504 0.103135
v 0.871212 -1.17216 0.0978957
v 0.860466 -1.15842 0.0880621
v 0.857218 -1.14937 0.0863402
v 0.857803 -1.15176 0.0865284
v 0.85865 -1.15432 0.0869383
v 0.859804 -1.15706 0.0876246
v 0.857765 -1.15135 0.0904922
v 0.857218 -1.14923 0.0903362
v 0.8586 -1.15361 0.0908201
v 0.859768 -1.156 0.0913656
v 0.860447 -1.15717 0.0917138
v 0.861327 -1.15854 0.092193
v 0.865742 -1.16389 0.0950115
v 0.864509 -1.16258 0.0941568
v 0.86332 -1.1612 0.093382
v 0.862939 -1.16073 0.0931443
v 0.863248 -1.16312 0.0901425
v 0.864398 -1.16475 0.0910991
v 0.865592 -1.16631 0.0921472
v 0.865708 -1.16645 0.0922522
v 0.69582 -0.352502 0.0640491
v 0.690135 -0.324038 0.0593574
v 0.690179 -0.324204 0.0612528
v 0.690279 -0.324555 0.0652693
v 0.695699 -0.351761 0.0685415
v 0.695678 -0.351647 0.0688664
v 0.695286 -0.349564 0.0726294
v 0.695239 -0.349324 0.072931
v 0.694993 -0.348055 0.0742831
v 0.69492 -0.347686 0.0746154
v 0.694648 -0.346304 0.0756733
v 0.694546 -0.34579 0.0760024
v 0.690389 -0.325011 0.0677906
v 0.690377 -0.324957 0.0675897
v 0.690798 -0.326999 0.0720294
v 0.69075 -0.326757 0.0716689
v 0.690563 -0.325827 0.0699937
v 0.690535 -0.325691 0.0696953
v 0.69109 -0.328495 0.0738404
v 0.69103 -0.328186 0.0735138
v 0.691826 -0.332283 0.0765921
v 0.691707 -0.33168 0.0762748
v 0.691433 -0.330273 0.0753758
v 0.69134 -0.329793 0.0750104
v 0.692266 -0.334467 0.0774552
v 0.692113 -0.333719 0.0772069
v 0.692531 -0.335758 0.0777776
v 0.692736 -0.336765 0.077941
v 0.692967 -0.337909 0.0780365
v 0.69321 -0.339112 0.0780358
v 0.693417 -0.34014 0.0779529
v 0.693678 -0.341442 0.0777368
v 0.693847 -0.342284 0.0775284
v 0.694129 -0.343689 0.0770526
v 0.69422 -0.344147 0.0768604
v 0.695494 -0.350656 0.0709965
v 0.695527 -0.350835 0.0706738
v 0.695789 -0.352267 0.0666006
v 0.695798 -0.352321 0.0662923
v 0.815965 -0.945644 0.0822041
v 0.774713 -0.742054 0.0740719
v 0.694962 -0.348601 0.0543529
v 0.733461 -0.538604 0.0619426
v 0.733461 -0.538464 0.0659398
v 0.815965 -0.945784 0.0782076
v 0.774713 -0.742194 0.0700751
v 0.691064 -0.32921 0.0535768
v 0.691413 -0.331061 0.0521902
v 0.694808 -0.347863 0.053639
v 0.69252 -0.336681 0.0501681
v 0.69262 -0.337171 0.0501124
v 0.692185 -0.335009 0.0504919
v 0.693002 -0.339062 0.0500603
v 0.693105 -0.33957 0.0500899
v 0.693482 -0.341427 0.050358
v 0.693567 -0.341839 0.0504528
v 0.693949 -0.343707 0.0510526
v 0.694043 -0.344165 0.0512456
v 0.694387 -0.345836 0.0521241
v 0.694447 -0.346127 0.0523077
v 0.694785 -0.347753 0.0535415
v 0.691621 -0.332144 0.0515759
v 0.691791 -0.333018 0.0511677
v 0.692054 -0.334352 0.0506782
v 0.775087 -0.048089 0.0482266
v 0.774743 -0.049486 0.0475787
v 0.773159 -0.054834 0.0455996
v 0.772969 -0.0553939 0.0454334
v 0.771934 -0.058221 0.0447064
v 0.770341 -0.062045 0.043991
v 0.770046 -0.0627 0.0438967
v 0.766387 -0.06988 0.0433481
v 0.761163 -0.078285 0.0435207
v 0.776509 -0.040248 0.0531894
v 0.776468 -0.04057 0.0529281
v 0.775877 -0.0443209 0.0502929
v 0.77711 -0.032578 0.0629566
v 0.777035 -0.034388 0.0596474
v 0.776861 -0.03693 0.056345
v 0.777115 -0.032408 0.0633381
v 0.777138 -0.0313619 0.0662014
v 0.777142 -0.031053 0.0673091
v 0.77715 -0.030488 0.0699034
v 0.777149 -0.029397 0.0767348
v 0.777149 -0.020893 0.0922675
v 0.777149 -0.022657 0.0904024
v 0.777149 -0.0229909 0.0900117
v 0.777149 -0.024256 0.0883941
v 0.777149 -0.025866 0.0859385
v 0.777149 -0.026908 0.0840036
v 0.777149 -0.028015 0.0814696
v 0.777149 -0.028775 0.0792256
v 0.777149 -0.00353206 0.100531
v 0.777149 -0.00511301 0.100302
v 0.777149 -0.00842405 0.0995325
v 0.777149 -0.010074 0.0989969
v 0.777149 -0.013039 0.0977572
v 0.777149 -0.014741 0.0968688
v 0.777149 -0.017298 0.0952516
v 0.777149 -0.019515 0.0935245
v 0.759966 -0.080025 0.0435991
v 0.75005 -0.0930359 0.0442824
v 0.727532 -0.120215 0.0460978
v 0.716166 -0.135617 0.0472089
v 0.705552 -0.153051 0.0484417
v 0.696306 -0.173133 0.0497846
v 0.692393 -0.18436 0.0504901
v 0.689055 -0.19648 0.0512167
v 0.686368 -0.20957 0.0519647
v 0.68441 -0.223709 0.052734
v 0.683255 -0.238972 0.0535249
v 0.682981 -0.255439 0.0543375
v 0.683663 -0.273184 0.0551719
v 0.685378 -0.292287 0.0560284
v 0.688201 -0.312825 0.0569069
v 0.750078 -0.093074 0.0402374
v 0.759983 -0.080056 0.0395719
v 0.727584 -0.120268 0.0420164
v 0.716228 -0.135679 0.0431122
v 0.705621 -0.153122 0.0443338
v 0.696379 -0.173214 0.0456723
v 0.692462 -0.184446 0.0463827
v 0.689118 -0.196572 0.047119
v 0.686423 -0.209669 0.0478801
v 0.684454 -0.223814 0.0486649
v 0.683289 -0.239084 0.0494724
v 0.683004 -0.255557 0.0503013
v 0.683677 -0.273309 0.0511506
v 0.685384 -0.292418 0.0520193
v 0.688202 -0.31296 0.0529062
v 0.777149 -0.018025 0.0385666
v 0.776941 -0.035912 0.0385772
v 0.775893 -0.04425 0.0386322
v 0.774031 -0.052092 0.038733
v 0.771432 -0.059517 0.0388784
v 0.768173 -0.066601 0.0390675
v 0.764434 -0.073253 0.0392927
v 0.761211 -0.078265 0.0394937
v 0.261186 -0.35198 0.0583221
v 0.261198 -0.35202 0.0583691
v 0.261212 -0.352068 0.0584261
v 0.261401 -0.352502 0.0589413
v 0.262554 -0.3525 0.0616885
v 0.264413 -0.352502 0.0640491
v 0.261441 -0.352502 0.059367
v 0.261571 -0.352501 0.0598857
v 0.261842 -0.3525 0.0605291
v 0.656972 -0.352502 0.0609804
v 0.623073 -0.352502 0.0640491
v 0.68152 -0.323901 0.0577948
v 0.64236 -0.324145 0.0605765
v 0.594651 -0.324555 0.0652693
v 0.579363 -0.324814 0.0669949
v 0.573038 -0.324995 0.0677371
v 0.554936 -0.325804 0.0699461
v 0.550053 -0.326109 0.0705625
v 0.557361 -0.350428 0.0713825
v 0.560854 -0.350673 0.0709675
v 0.579155 -0.351663 0.0688232
v 0.585266 -0.351896 0.0681224
v 0.599594 -0.352282 0.0665193
v 0.621115 -0.3525 0.0642462
v 0.253632 -0.324748 0.0666614
v 0.251072 -0.32451 0.0645377
v 0.258081 -0.325582 0.0694432
v 0.254333 -0.324851 0.0671568
v 0.266691 -0.328096 0.0734153
v 0.264942 -0.327499 0.0727057
v 0.2623 -0.326678 0.0715512
v 0.266956 -0.352253 0.0666693
v 0.268308 -0.351973 0.0678605
v 0.268971 -0.351805 0.0684076
v 0.266128 -0.352379 0.0658773
v 0.246625 -0.324291 0.0582549
v 0.246606 -0.324282 0.0580095
v 0.24716 -0.324344 0.0597644
v 0.246945 -0.324329 0.0593362
v 0.2497 -0.324462 0.0631128
v 0.248164 -0.324395 0.0612494
v 0.246809 -0.324318 0.0590013
v 0.246733 -0.32431 0.0587698
v 0.246657 -0.324299 0.0584527
v 0.246906 -0.324785 0.0575578
v 0.250156 -0.327467 0.0551445
v 0.250713 -0.327715 0.0549263
v 0.24967 -0.327216 0.0553698
v 0.251129 -0.327864 0.0547843
v 0.251203 -0.327888 0.0547609
v 0.248629 -0.326537 0.0559805
v 0.249011 -0.326811 0.0557322
v 0.249156 -0.326908 0.0556457
v 0.247099 -0.325052 0.0573175
v 0.247322 -0.325324 0.0570714
v 0.24757 -0.325596 0.0568264
v 0.247895 -0.325918 0.0565378
v 0.248099 -0.326103 0.0563715
# </points>

# <edges count="362">
l 7 8
l 9 10
l 10 11
l 11 7
l 8 12
l 12 13
l 14 15
l 13 16
l 16 1
l 1 17
l 17 18
l 18 2
l 2 14
l 19 20
l 20 21
l 21 22
l 22 9
l 23 24
l 25 26
l 27 23
l 26 28
l 29 19
l 15 30
l 31 29
l 32 33
l 28 34
l 34 35
l 30 27
l 35 36
l 36 31
l 37 32
l 38 39
l 40 37
l 39 41
l 24 40
l 41 42
l 42 25
l 43 44
l 44 45
l 46 47
l 48 49
l 50 51
l 45 52
l 52 53
l 53 38
l 33 46
l 54 55
l 55 48
l 49 56
l 56 57
l 57 50
l 47 58
l 58 59
l 60 54
l 61 60
l 51 62
l 62 63
l 63 64
l 64 65
l 65 66
l 66 43
l 67 68
l 68 69
l 69 70
l 71 67
l 70 72
l 72 73
l 59 74
l 74 71
l 75 61
l 73 75
l 76 77
l 78 3
l 3 4
l 4 79
l 80 78
l 79 81
l 82 80
l 81 83
l 84 82
l 83 85
l 86 84
l 85 87
l 88 86
l 87 89
l 90 88
l 89 91
l 92 90
l 93 92
l 91 94
l 94 76
l 95 96
l 96 93
l 4 97
l 98 3
l 99 100
l 100 101
l 102 103
l 101 104
l 104 105
l 106 107
l 108 99
l 103 109
l 109 110
l 111 112
l 113 114
l 114 102
l 115 113
l 105 116
l 116 106
l 110 117
l 117 118
l 119 108
l 112 119
l 120 121
l 122 120
l 121 123
l 123 124
l 124 111
l 125 126
l 126 127
l 128 129
l 118 128
l 129 130
l 130 122
l 127 131
l 131 132
l 107 125
l 132 133
l 133 115
l 134 135
l 136 137
l 138 139
l 140 141
l 141 142
l 143 144
l 145 140
l 146 147
l 97 145
l 142 146
l 148 98
l 137 148
l 149 136
l 139 149
l 150 134
l 151 152
l 152 153
l 153 154
l 154 150
l 155 156
l 157 155
l 158 157
l 159 158
l 160 159
l 144 161
l 161 162
l 162 163
l 163 164
l 164 160
l 165 166
l 166 167
l 167 168
l 168 138
l 135 165
l 147 143
l 5 169
l 170 6
l 171 170
l 172 171
l 173 174
l 175 176
l 177 178
l 179 180
l 181 182
l 182 172
l 183 184
l 184 185
l 185 186
l 186 181
l 187 188
l 188 183
l 189 190
l 190 191
l 191 192
l 192 187
l 193 194
l 194 189
l 195 193
l 196 195
l 197 196
l 198 197
l 199 198
l 200 199
l 201 200
l 202 201
l 203 202
l 180 203
l 178 179
l 176 177
l 204 175
l 205 204
l 174 205
l 206 173
l 207 206
l 169 207
l 208 209
l 210 211
l 212 5
l 213 151
l 156 208
l 214 213
l 209 212
l 211 214
l 215 216
l 217 210
l 218 219
l 220 218
l 219 221
l 221 222
l 222 223
l 223 224
l 224 225
l 225 226
l 226 227
l 227 228
l 228 229
l 229 217
l 216 230
l 230 231
l 231 232
l 232 220
l 233 234
l 234 235
l 235 236
l 236 237
l 237 238
l 238 239
l 240 241
l 242 243
l 243 244
l 244 233
l 245 246
l 246 247
l 247 242
l 248 245
l 249 248
l 250 249
l 251 250
l 252 251
l 253 254
l 254 255
l 255 256
l 256 257
l 257 258
l 258 259
l 259 260
l 260 252
l 1 261
l 261 262
l 262 263
l 263 264
l 264 265
l 265 266
l 266 267
l 267 268
l 268 253
l 269 270
l 270 271
l 271 272
l 272 273
l 273 274
l 274 275
l 275 276
l 276 277
l 277 278
l 278 279
l 279 280
l 280 281
l 281 282
l 282 283
l 283 6
l 241 269
l 284 285
l 286 284
l 287 286
l 288 287
l 289 288
l 290 289
l 291 290
l 292 291
l 293 292
l 294 293
l 295 294
l 296 295
l 297 296
l 298 297
l 215 298
l 299 2
l 300 299
l 301 300
l 302 301
l 303 302
l 304 303
l 305 304
l 306 305
l 285 306
l 307 308
l 308 309
l 309 310
l 311 312
l 310 313
l 313 314
l 314 315
l 315 311
l 316 5
l 317 316
l 6 318
l 318 319
l 319 320
l 321 322
l 320 321
l 323 324
l 322 323
l 325 326
l 326 327
l 327 328
l 328 329
l 329 330
l 330 317
l 331 332
l 333 334
l 334 331
l 335 336
l 336 337
l 337 333
l 338 339
l 339 340
l 312 341
l 341 338
l 342 343
l 344 345
l 332 346
l 346 347
l 347 344
l 345 348
l 348 349
l 349 350
l 350 342
l 343 351
l 352 353
l 354 352
l 353 355
l 355 356
l 357 358
l 358 359
l 359 354
l 351 360
l 360 361
l 361 362
l 362 363
l 363 364
l 364 357
# </edges>
